<?xml version="1.0" encoding="utf-8"?>
<!-- Generator: Adobe Illustrator 21.1.0, SVG Export Plug-In . SVG Version: 6.00 Build 0)  -->
<svg version="1.1" xmlns="http://www.w3.org/2000/svg" xmlns:xlink="http://www.w3.org/1999/xlink" x="0px" y="0px"
	 viewBox="0 0 510.2 510.2" style="enable-background:new 0 0 510.2 510.2;" xml:space="preserve">
<style type="text/css">
	.st0{fill:#FFFFFF;stroke:#000000;stroke-miterlimit:10;}
	.st1{fill:#FFFFFF;}
</style>
<g id="Layer_2">
	<path class="st0" d="M492.8,148.9v220.1c0,22.2-18.1,40.3-40.3,40.3H56.9c-22.2,0-40.3-18.1-40.3-40.3V148.9
		c0-22.2,18.1-40.3,40.3-40.3h395.5C474.6,108.6,492.8,126.8,492.8,148.9z"/>
</g>
<g id="Layer_1">
	<g>
		<path d="M130.4,271.2c9.3-9.3,24.4-9.3,33.7,0c9.3,9.3,9.3,24.4,0,33.7c-9.3,9.3-24.4,9.3-33.7,0
			C121.1,295.6,121.1,280.5,130.4,271.2z"/>
		<path d="M109.6,250.4l-11.9-11.9c27.3-27.3,71.6-27.3,98.9,0l-11.9,11.9C164.1,229.7,130.4,229.7,109.6,250.4z"/>
		<path d="M86.2,227l-11.9-11.9c40.2-40.2,105.6-40.2,145.8,0L208.2,227C174.6,193.3,119.8,193.3,86.2,227z"/>
		<path d="M63.9,204.6l-11.9-11.9c52.5-52.5,137.8-52.5,190.3,0l-11.9,11.9C184.6,158.7,109.8,158.7,63.9,204.6z"/>
		<g>
			<path d="M87.3,350.1l-1.3,4l-1,2.9c-0.3,0.8-0.6,1.4-2.1,1.4h-4.4c-1.4,0-1.9-0.5-2.2-1.4l-6.6-24c-0.2-0.7-0.1-1.2,0.8-1.2h5.7
				c1.1,0,1.6,0.3,1.8,1.3l1.7,7.8l1.6,7.1h0.2l1.3-4.6l1.2-4.2l-2-6.3c-0.2-0.5,0-1.2,0.6-1.2h5.2c1.1,0,1.6,0.3,1.9,1.3l2.2,9
				l1.4,6h0.2l1.2-6.8l1.6-8.2c0.2-1,0.8-1.3,2-1.3h5.4c0.9,0,1,0.5,0.8,1.2l-6,24c-0.3,0.9-0.8,1.4-2.2,1.4h-4.4
				c-1.6,0-1.8-0.6-2.1-1.4l-0.9-2.9l-1.3-4H87.3z"/>
			<path d="M110.6,336.9c-3.4,0-3.8-1.9-3.8-3.6c0-1.9,0.8-3.5,3.8-3.5c3.2,0,3.8,1.5,3.8,3.5C114.5,335.1,113.9,336.9,110.6,336.9z
				 M114.3,357.5c0,0.3-0.1,1-0.9,1h-5.6c-0.8,0-1-0.4-1-1v-18c0-0.5,0.2-1,1-1h5.6c0.8,0,0.9,0.6,0.9,1V357.5z"/>
			<path d="M119.2,332.8c0-0.5,0.2-1,1-1h16.5c0.6,0,1,0.4,1,1v4.6c0,0.5-0.2,0.9-1,0.9h-9.6v3.2h8c0.6,0,1,0.4,1,1v4.6
				c0,0.5-0.2,0.9-1,0.9h-8v9.6c0,0.3-0.1,1-0.9,1h-6c-0.8,0-1-0.4-1-1L119.2,332.8z"/>
			<path d="M144.2,336.9c-3.4,0-3.8-1.9-3.8-3.6c0-1.9,0.8-3.5,3.8-3.5c3.2,0,3.8,1.5,3.8,3.5C148,335.1,147.4,336.9,144.2,336.9z
				 M147.8,357.5c0,0.3-0.1,1-0.9,1h-5.6c-0.8,0-1-0.4-1-1v-18c0-0.5,0.2-1,1-1h5.6c0.8,0,0.9,0.6,0.9,1V357.5z"/>
			<path d="M170.8,357.5c0,0.3-0.1,1-0.9,1h-5.7c-0.8,0-1-0.4-1-1V353l-11,0c-0.7,0-1.3-0.3-1.3-1.2v-3.8c0-0.4,0-0.8,0.4-1.4
				l10.9-14c0.5-0.6,1-0.8,1.8-0.8h5.7c0.8,0,0.9,0.6,0.9,1v13.9h2.4c0.8,0,0.9,0.3,0.9,0.9v4.4c0,0.7-0.1,1-0.9,1l-2.4,0V357.5z
				 M163.2,341.4l-3.9,5.3v0.2h4.1v-5.5H163.2z"/>
			<path d="M177.4,332.8c0-0.5,0.2-1,1-1h16.8c0.6,0,1,0.4,1,1v4.6c0,0.5-0.2,0.9-1,0.9h-9.9v3.2h8.6c0.6,0,1,0.4,1,1v4.6
				c0,0.5-0.2,0.9-1,0.9h-8.6v4.1h10.1c0.6,0,1,0.4,1,1v4.6c0,0.5-0.2,0.9-1,0.9h-17c-0.8,0-1-0.4-1-1V332.8z"/>
			<path d="M214.8,348.2l0-15.4c0-0.5,0.2-1,1-1h5.9c0.8,0,0.9,0.6,0.9,1v15.6c0,1.5-0.1,3.1-0.8,4.8c-1.7,4-6,5.6-10.2,5.6
				c-3.8,0-6.6-1.2-8.4-3.1c-1.7-1.9-2.5-4.4-2.5-7.3v-15.6c0-0.5,0.2-1,1-1h5.9c0.8,0,0.9,0.6,0.9,1v15.4c0,2.7,1.1,4,3.1,4
				C213.7,352.1,214.8,350.8,214.8,348.2z"/>
		</g>
		<g>
			<g>
				<path d="M302.9,179.9h2.2v5.6h0.1c0.3-0.5,0.6-0.9,0.9-1.3l3.2-4.3h2.7l-4.2,5.2l4.4,7h-2.6l-3.4-5.6l-1.1,1.3v4.3h-2.2V179.9z"
					/>
				<path d="M320.2,189.9c0,0.8,0,1.6,0.1,2.1h-2l-0.2-1h-0.1c-0.5,0.7-1.4,1.2-2.6,1.2c-1.8,0-2.8-1.3-2.8-2.6c0-2.2,2-3.3,5.2-3.3
					v-0.1c0-0.6-0.2-1.5-1.8-1.5c-0.9,0-1.8,0.3-2.4,0.6l-0.4-1.4c0.6-0.4,1.8-0.8,3.2-0.8c2.8,0,3.6,1.8,3.6,3.7V189.9z
					 M318.1,187.7c-1.6,0-3.1,0.3-3.1,1.6c0,0.9,0.6,1.3,1.3,1.3c0.9,0,1.5-0.6,1.7-1.2c0.1-0.2,0.1-0.3,0.1-0.5V187.7z"/>
				<path d="M329.4,189.9c0,0.8,0,1.6,0.1,2.1h-2l-0.2-1h-0.1c-0.5,0.7-1.4,1.2-2.6,1.2c-1.8,0-2.8-1.3-2.8-2.6c0-2.2,2-3.3,5.2-3.3
					v-0.1c0-0.6-0.2-1.5-1.8-1.5c-0.9,0-1.8,0.3-2.4,0.6l-0.4-1.4c0.6-0.4,1.8-0.8,3.2-0.8c2.8,0,3.6,1.8,3.6,3.7V189.9z
					 M327.2,187.7c-1.6,0-3.1,0.3-3.1,1.6c0,0.9,0.6,1.3,1.3,1.3c0.9,0,1.5-0.6,1.7-1.2c0.1-0.2,0.1-0.3,0.1-0.5V187.7z"/>
				<path d="M331.6,190c0.5,0.3,1.4,0.6,2.2,0.6c1,0,1.4-0.4,1.4-1c0-0.6-0.4-0.9-1.4-1.3c-1.7-0.6-2.4-1.5-2.4-2.6
					c0-1.5,1.3-2.7,3.3-2.7c1,0,1.8,0.2,2.3,0.5l-0.5,1.5c-0.4-0.2-1.1-0.5-1.9-0.5c-0.8,0-1.2,0.4-1.2,0.9c0,0.6,0.4,0.8,1.5,1.2
					c1.6,0.6,2.3,1.4,2.3,2.7c0,1.6-1.2,2.8-3.6,2.8c-1.1,0-2-0.3-2.7-0.6L331.6,190z"/>
				<path d="M339.2,186.1c0-1.2,0-2.1-0.1-2.8h1.9l0.1,1.7h0.1c0.4-1.2,1.5-1.9,2.4-1.9c0.2,0,0.3,0,0.5,0.1v2.1
					c-0.2,0-0.4-0.1-0.7-0.1c-1,0-1.8,0.7-2,1.7c0,0.2-0.1,0.4-0.1,0.7v4.6h-2.2V186.1z"/>
				<path d="M352.3,189.9c0,0.8,0,1.6,0.1,2.1h-2l-0.2-1h-0.1c-0.5,0.7-1.4,1.2-2.6,1.2c-1.8,0-2.8-1.3-2.8-2.6c0-2.2,2-3.3,5.2-3.3
					v-0.1c0-0.6-0.2-1.5-1.8-1.5c-0.9,0-1.8,0.3-2.4,0.6l-0.4-1.4c0.6-0.4,1.8-0.8,3.2-0.8c2.8,0,3.6,1.8,3.6,3.7V189.9z
					 M350.1,187.7c-1.6,0-3.1,0.3-3.1,1.6c0,0.9,0.6,1.3,1.3,1.3c0.9,0,1.5-0.6,1.7-1.2c0.1-0.2,0.1-0.3,0.1-0.5V187.7z"/>
				<path d="M354.6,179.2h2.2v5.2h0c0.3-0.4,0.6-0.8,1.1-1c0.5-0.3,1-0.4,1.5-0.4c1.5,0,3.1,1,3.1,3.8v5.2h-2.2v-4.9
					c0-1.3-0.5-2.2-1.7-2.2c-0.9,0-1.5,0.6-1.7,1.2c-0.1,0.2-0.1,0.4-0.1,0.7v5.3h-2.2V179.2z"/>
				<path d="M371.7,189.9c0,0.8,0,1.6,0.1,2.1h-2l-0.2-1h-0.1c-0.5,0.7-1.4,1.2-2.6,1.2c-1.8,0-2.8-1.3-2.8-2.6c0-2.2,2-3.3,5.2-3.3
					v-0.1c0-0.6-0.2-1.5-1.8-1.5c-0.9,0-1.8,0.3-2.4,0.6l-0.4-1.4c0.6-0.4,1.8-0.8,3.2-0.8c2.8,0,3.6,1.8,3.6,3.7V189.9z
					 M369.5,187.7c-1.6,0-3.1,0.3-3.1,1.6c0,0.9,0.6,1.3,1.3,1.3c0.9,0,1.5-0.6,1.7-1.2c0.1-0.2,0.1-0.3,0.1-0.5V187.7z"/>
				<path d="M373.9,190c0.5,0.3,1.4,0.6,2.2,0.6c1,0,1.4-0.4,1.4-1c0-0.6-0.4-0.9-1.4-1.3c-1.7-0.6-2.4-1.5-2.4-2.6
					c0-1.5,1.3-2.7,3.3-2.7c1,0,1.8,0.2,2.3,0.5l-0.5,1.5c-0.4-0.2-1.1-0.5-1.9-0.5c-0.8,0-1.2,0.4-1.2,0.9c0,0.6,0.4,0.8,1.5,1.2
					c1.6,0.6,2.3,1.4,2.3,2.7c0,1.6-1.2,2.8-3.6,2.8c-1.1,0-2-0.3-2.7-0.6L373.9,190z"/>
				<path d="M384.1,181v2.3h2.1v1.7h-2.1v3.9c0,1.1,0.3,1.6,1.1,1.6c0.4,0,0.6,0,0.9-0.1l0,1.7c-0.3,0.1-0.9,0.2-1.6,0.2
					c-0.8,0-1.5-0.3-1.9-0.7c-0.5-0.5-0.7-1.3-0.7-2.5v-4.1h-1.2v-1.7h1.2v-1.6L384.1,181z"/>
				<path d="M394.7,189.9c0,0.8,0,1.6,0.1,2.1h-2l-0.2-1h-0.1c-0.5,0.7-1.4,1.2-2.6,1.2c-1.8,0-2.8-1.3-2.8-2.6c0-2.2,2-3.3,5.2-3.3
					v-0.1c0-0.6-0.2-1.5-1.8-1.5c-0.9,0-1.8,0.3-2.4,0.6l-0.4-1.4c0.6-0.4,1.8-0.8,3.2-0.8c2.8,0,3.6,1.8,3.6,3.7V189.9z
					 M392.5,187.7c-1.6,0-3.1,0.3-3.1,1.6c0,0.9,0.6,1.3,1.3,1.3c0.9,0,1.5-0.6,1.7-1.2c0.1-0.2,0.1-0.3,0.1-0.5V187.7z"/>
				<path d="M397,185.9c0-1,0-1.9-0.1-2.6h1.9l0.1,1.3h0.1c0.4-0.7,1.4-1.5,2.8-1.5c1.5,0,3.1,1,3.1,3.8v5.2h-2.2v-5
					c0-1.3-0.5-2.2-1.7-2.2c-0.9,0-1.5,0.6-1.7,1.3c-0.1,0.2-0.1,0.5-0.1,0.7v5.2H397V185.9z"/>
				<path d="M415.2,189.4c0,1,0,1.9,0.1,2.6h-1.9l-0.1-1.3h-0.1c-0.4,0.6-1.2,1.5-2.8,1.5c-1.6,0-3-1-3-3.8v-5.1h2.2v4.8
					c0,1.5,0.5,2.4,1.6,2.4c0.9,0,1.5-0.6,1.7-1.2c0.1-0.2,0.1-0.4,0.1-0.7v-5.3h2.2V189.4z"/>
				<path d="M425.6,179.2v10.3c0,0.9,0,1.9,0.1,2.5h-2l-0.1-1.4h0c-0.5,1-1.6,1.6-2.8,1.6c-2.1,0-3.8-1.8-3.8-4.5
					c0-2.9,1.8-4.7,3.9-4.7c1.2,0,2.1,0.5,2.5,1.1h0v-5H425.6z M423.4,186.9c0-0.2,0-0.4-0.1-0.6c-0.2-0.8-0.9-1.5-1.9-1.5
					c-1.4,0-2.2,1.3-2.2,2.9c0,1.6,0.8,2.8,2.2,2.8c0.9,0,1.7-0.6,1.9-1.6c0.1-0.2,0.1-0.4,0.1-0.6V186.9z"/>
				<path d="M309.7,208.2h-4.6v3.6h5.1v1.8h-7.3v-12.1h7.1v1.8h-4.8v3.1h4.6V208.2z"/>
				<path d="M319.8,211c0,1,0,1.9,0.1,2.6h-1.9l-0.1-1.3h-0.1c-0.4,0.6-1.2,1.5-2.8,1.5c-1.6,0-3-1-3-3.8v-5.1h2.2v4.8
					c0,1.5,0.5,2.4,1.6,2.4c0.9,0,1.5-0.6,1.7-1.2c0.1-0.2,0.1-0.4,0.1-0.7v-5.3h2.2V211z"/>
				<path d="M322.2,207.7c0-1.2,0-2.1-0.1-2.8h1.9l0.1,1.7h0.1c0.4-1.2,1.5-1.9,2.4-1.9c0.2,0,0.3,0,0.5,0.1v2.1
					c-0.2,0-0.4-0.1-0.7-0.1c-1,0-1.8,0.7-2,1.7c0,0.2-0.1,0.4-0.1,0.7v4.6h-2.2V207.7z"/>
				<path d="M336.7,209.2c0,3.2-2.3,4.7-4.5,4.7c-2.5,0-4.4-1.7-4.4-4.5c0-2.9,1.9-4.6,4.5-4.6C335,204.6,336.7,206.5,336.7,209.2z
					 M330.1,209.2c0,1.7,0.8,3,2.2,3c1.3,0,2.1-1.2,2.1-3c0-1.4-0.6-3-2.1-3C330.8,206.3,330.1,207.8,330.1,209.2z"/>
				<path d="M346.9,209.2c0,3.2-2.3,4.7-4.5,4.7c-2.5,0-4.4-1.7-4.4-4.5c0-2.9,1.9-4.6,4.5-4.6C345.2,204.6,346.9,206.5,346.9,209.2
					z M340.3,209.2c0,1.7,0.8,3,2.2,3c1.3,0,2.1-1.2,2.1-3c0-1.4-0.6-3-2.1-3C340.9,206.3,340.3,207.8,340.3,209.2z"/>
				<path d="M348.7,207.8c0-1.2,0-2.1-0.1-2.9h1.9l0.1,1.4h0c0.6-1,1.7-1.5,3-1.5c2,0,3.7,1.7,3.7,4.5c0,3.2-2,4.7-4,4.7
					c-1.1,0-2-0.5-2.5-1.2h0v4.5h-2.2V207.8z M350.9,209.9c0,0.2,0,0.4,0.1,0.6c0.2,0.9,1,1.5,2,1.5c1.4,0,2.2-1.2,2.2-2.9
					c0-1.5-0.8-2.8-2.2-2.8c-0.9,0-1.8,0.7-2,1.6c0,0.2-0.1,0.4-0.1,0.6V209.9z"/>
				<path d="M366.1,211.5c0,0.8,0,1.6,0.1,2.1h-2l-0.2-1H364c-0.5,0.7-1.4,1.2-2.6,1.2c-1.8,0-2.8-1.3-2.8-2.6c0-2.2,2-3.3,5.2-3.3
					v-0.1c0-0.6-0.2-1.5-1.8-1.5c-0.9,0-1.8,0.3-2.4,0.6l-0.4-1.4c0.6-0.4,1.8-0.8,3.2-0.8c2.8,0,3.6,1.8,3.6,3.7V211.5z
					 M363.9,209.3c-1.6,0-3.1,0.3-3.1,1.6c0,0.9,0.6,1.3,1.3,1.3c0.9,0,1.5-0.6,1.7-1.2c0.1-0.2,0.1-0.3,0.1-0.5V209.3z"/>
				<path d="M372.2,201.5h2.2v10.3h5v1.9h-7.2V201.5z"/>
				<path d="M383.3,202.4c0,0.6-0.5,1.2-1.3,1.2c-0.7,0-1.2-0.5-1.2-1.2c0-0.7,0.5-1.2,1.2-1.2C382.9,201.2,383.3,201.7,383.3,202.4
					z M381,213.6v-8.8h2.2v8.8H381z"/>
				<path d="M388,202.4c0,0.6-0.5,1.2-1.3,1.2c-0.7,0-1.2-0.5-1.2-1.2c0-0.7,0.5-1.2,1.2-1.2C387.5,201.2,387.9,201.7,388,202.4z
					 M385.6,213.6v-8.8h2.2v8.8H385.6z"/>
				<path d="M392.7,202.6v2.3h2.1v1.7h-2.1v3.9c0,1.1,0.3,1.6,1.1,1.6c0.4,0,0.6,0,0.9-0.1l0,1.7c-0.3,0.1-0.9,0.2-1.6,0.2
					c-0.8,0-1.5-0.3-1.9-0.7c-0.5-0.5-0.7-1.3-0.7-2.5v-4.1h-1.2v-1.7h1.2v-1.6L392.7,202.6z"/>
			</g>
			<g>
				<rect x="301.6" y="229.7" width="153.8" height="102.6"/>
				<g>
					<polygon class="st1" points="378.3,241.1 377,244.9 373.2,244.9 376.1,247.4 375.3,250.8 378.3,248.7 381.2,250.8 380.4,247.4 
						383.4,244.9 379.6,244.9 					"/>
					<polygon class="st1" points="378.3,309 377,312.8 373.2,312.8 376.1,315.3 375.3,318.7 378.3,316.6 381.2,318.7 380.4,315.3 
						383.4,312.8 379.6,312.8 					"/>
					<polygon class="st1" points="344.1,275 342.8,278.9 339,278.9 341.9,281.5 341.1,284.9 344.1,282.7 347.1,284.9 346.2,281.5 
						349.2,278.9 345.4,278.9 					"/>
					<polygon class="st1" points="412.5,275 411.2,278.9 407.4,278.9 410.3,281.5 409.4,284.9 412.5,282.7 415.4,284.9 414.6,281.5 
						417.6,278.9 413.8,278.9 					"/>
					<polygon class="st1" points="361.2,246.2 359.9,250 356.1,250 359,252.6 358.2,255.9 361.2,253.9 364.2,255.9 363.3,252.6 
						366.3,250 362.5,250 					"/>
					<polygon class="st1" points="395.4,246.2 394.1,250 390.3,250 393.2,252.6 392.3,255.9 395.4,253.9 398.3,255.9 397.6,252.6 
						400.5,250 396.7,250 					"/>
					<polygon class="st1" points="361.2,303.9 359.9,307.7 356.1,307.7 359,310.2 358.2,313.6 361.2,311.5 364.2,313.6 363.3,310.2 
						366.3,307.7 362.5,307.7 					"/>
					<polygon class="st1" points="395.4,303.9 394.1,307.7 390.3,307.7 393.2,310.2 392.3,313.6 395.4,311.5 398.3,313.6 
						397.6,310.2 400.5,307.7 396.7,307.7 					"/>
					<polygon class="st1" points="349.2,258.1 347.9,261.9 344.1,261.9 347.1,264.4 346.2,267.8 349.2,265.8 352.2,267.8 
						351.4,264.4 354.3,261.9 350.5,261.9 					"/>
					<polygon class="st1" points="407.4,258.1 406.1,261.9 402.2,261.9 405.2,264.4 404.3,267.8 407.4,265.8 410.3,267.8 
						409.4,264.4 412.5,261.9 408.7,261.9 					"/>
					<polygon class="st1" points="349.2,292.1 347.9,295.8 344.1,295.8 347.1,298.3 346.2,301.7 349.2,299.6 352.2,301.7 
						351.4,298.3 354.3,295.8 350.5,295.8 					"/>
					<polygon class="st1" points="407.4,292.1 406.1,295.8 402.2,295.8 405.2,298.3 404.3,301.7 407.4,299.6 410.3,301.7 
						409.4,298.3 412.5,295.8 408.7,295.8 					"/>
				</g>
			</g>
		</g>
	</g>
</g>
</svg>
