<?xml version="1.0" encoding="utf-8"?>
<!-- Generator: Adobe Illustrator 21.1.0, SVG Export Plug-In . SVG Version: 6.00 Build 0)  -->
<svg version="1.1" xmlns="http://www.w3.org/2000/svg" xmlns:xlink="http://www.w3.org/1999/xlink" x="0px" y="0px"
	 viewBox="0 0 510.2 510.2" style="enable-background:new 0 0 510.2 510.2;" xml:space="preserve">
<style type="text/css">
	.st0{fill:#FFFFFF;stroke:#004996;stroke-width:2;stroke-miterlimit:10;}
	.st1{fill:#004996;}
	.st2{fill:#575756;}
	.st3{fill:#FFED00;}
</style>
<g id="Layer_2">
	<path class="st0" d="M492.8,148.9v220.1c0,22.2-18.1,40.3-40.3,40.3H56.9c-22.2,0-40.3-18.1-40.3-40.3V148.9
		c0-22.2,18.1-40.3,40.3-40.3h395.5C474.6,108.6,492.8,126.8,492.8,148.9z"/>
</g>
<g id="Layer_1">
	<g>
		<path class="st1" d="M130.4,271.2c9.3-9.3,24.4-9.3,33.7,0c9.3,9.3,9.3,24.4,0,33.7c-9.3,9.3-24.4,9.3-33.7,0
			C121.1,295.6,121.1,280.5,130.4,271.2z"/>
		<path class="st1" d="M109.6,250.4l-11.9-11.9c27.3-27.3,71.6-27.3,98.9,0l-11.9,11.9C164.1,229.7,130.4,229.7,109.6,250.4z"/>
		<path class="st1" d="M86.2,227l-11.9-11.9c40.2-40.2,105.6-40.2,145.8,0L208.2,227C174.6,193.3,119.8,193.3,86.2,227z"/>
		<path class="st1" d="M63.9,204.6l-11.9-11.9c52.5-52.5,137.8-52.5,190.3,0l-11.9,11.9C184.6,158.7,109.8,158.7,63.9,204.6z"/>
		<g>
			<path class="st1" d="M87.3,350.1l-1.3,4l-1,2.9c-0.3,0.8-0.6,1.4-2.1,1.4h-4.4c-1.4,0-1.9-0.5-2.2-1.4l-6.6-24
				c-0.2-0.7-0.1-1.2,0.8-1.2h5.7c1.1,0,1.6,0.3,1.8,1.3l1.7,7.8l1.6,7.1h0.2l1.3-4.6l1.2-4.2l-2-6.3c-0.2-0.5,0-1.2,0.6-1.2h5.2
				c1.1,0,1.6,0.3,1.9,1.3l2.2,9l1.4,6h0.2l1.2-6.8l1.6-8.2c0.2-1,0.8-1.3,2-1.3h5.4c0.9,0,1,0.5,0.8,1.2l-6,24
				c-0.3,0.9-0.8,1.4-2.2,1.4h-4.4c-1.6,0-1.8-0.6-2.1-1.4l-0.9-2.9l-1.3-4H87.3z"/>
			<path class="st1" d="M110.6,336.9c-3.4,0-3.8-1.9-3.8-3.6c0-1.9,0.8-3.5,3.8-3.5c3.2,0,3.8,1.5,3.8,3.5
				C114.5,335.1,113.9,336.9,110.6,336.9z M114.3,357.5c0,0.3-0.1,1-0.9,1h-5.6c-0.8,0-1-0.4-1-1v-18c0-0.5,0.2-1,1-1h5.6
				c0.8,0,0.9,0.6,0.9,1V357.5z"/>
			<path class="st1" d="M119.2,332.8c0-0.5,0.2-1,1-1h16.5c0.6,0,1,0.4,1,1v4.6c0,0.5-0.2,0.9-1,0.9h-9.6v3.2h8c0.6,0,1,0.4,1,1v4.6
				c0,0.5-0.2,0.9-1,0.9h-8v9.6c0,0.3-0.1,1-0.9,1h-6c-0.8,0-1-0.4-1-1L119.2,332.8z"/>
			<path class="st1" d="M144.2,336.9c-3.4,0-3.8-1.9-3.8-3.6c0-1.9,0.8-3.5,3.8-3.5c3.2,0,3.8,1.5,3.8,3.5
				C148,335.1,147.4,336.9,144.2,336.9z M147.8,357.5c0,0.3-0.1,1-0.9,1h-5.6c-0.8,0-1-0.4-1-1v-18c0-0.5,0.2-1,1-1h5.6
				c0.8,0,0.9,0.6,0.9,1V357.5z"/>
			<path class="st1" d="M170.8,357.5c0,0.3-0.1,1-0.9,1h-5.7c-0.8,0-1-0.4-1-1V353l-11,0c-0.7,0-1.3-0.3-1.3-1.2v-3.8
				c0-0.4,0-0.8,0.4-1.4l10.9-14c0.5-0.6,1-0.8,1.8-0.8h5.7c0.8,0,0.9,0.6,0.9,1v13.9h2.4c0.8,0,0.9,0.3,0.9,0.9v4.4
				c0,0.7-0.1,1-0.9,1l-2.4,0V357.5z M163.2,341.4l-3.9,5.3v0.2h4.1v-5.5H163.2z"/>
			<path class="st1" d="M177.4,332.8c0-0.5,0.2-1,1-1h16.8c0.6,0,1,0.4,1,1v4.6c0,0.5-0.2,0.9-1,0.9h-9.9v3.2h8.6c0.6,0,1,0.4,1,1
				v4.6c0,0.5-0.2,0.9-1,0.9h-8.6v4.1h10.1c0.6,0,1,0.4,1,1v4.6c0,0.5-0.2,0.9-1,0.9h-17c-0.8,0-1-0.4-1-1V332.8z"/>
			<path class="st1" d="M214.8,348.2l0-15.4c0-0.5,0.2-1,1-1h5.9c0.8,0,0.9,0.6,0.9,1v15.6c0,1.5-0.1,3.1-0.8,4.8
				c-1.7,4-6,5.6-10.2,5.6c-3.8,0-6.6-1.2-8.4-3.1c-1.7-1.9-2.5-4.4-2.5-7.3v-15.6c0-0.5,0.2-1,1-1h5.9c0.8,0,0.9,0.6,0.9,1v15.4
				c0,2.7,1.1,4,3.1,4C213.7,352.1,214.8,350.8,214.8,348.2z"/>
		</g>
		<g>
			<g>
				<path class="st2" d="M311.6,191.7c-0.5,0.3-1.7,0.5-3.2,0.5c-3.9,0-6.2-2.4-6.2-6.1c0-4,2.8-6.4,6.5-6.4c1.5,0,2.5,0.3,2.9,0.5
					l-0.5,1.8c-0.6-0.3-1.4-0.5-2.4-0.5c-2.5,0-4.2,1.5-4.2,4.5c0,2.7,1.5,4.4,4.2,4.4c0.9,0,1.8-0.2,2.4-0.4L311.6,191.7z"/>
				<path class="st2" d="M321.4,187.6c0,3.2-2.3,4.7-4.5,4.7c-2.5,0-4.4-1.7-4.4-4.5c0-2.9,1.9-4.6,4.5-4.6
					C319.7,183,321.4,184.9,321.4,187.6z M314.8,187.6c0,1.7,0.8,3,2.2,3c1.3,0,2.1-1.2,2.1-3c0-1.4-0.6-3-2.1-3
					C315.5,184.7,314.8,186.2,314.8,187.6z"/>
				<path class="st2" d="M323.5,192v-7.1h-1.2v-1.7h1.2v-0.4c0-2.4,1.6-3.8,4.2-3.8c0.9,0,1.9,0.2,2.4,0.6l-0.5,1.7
					c-0.4-0.2-1.1-0.5-1.9-0.5c-1.5,0-2,0.9-2,2.1v0.4h5.2v8.8h-2.2v-7.1h-3v7.1H323.5z"/>
				<path class="st2" d="M333.3,185.9c0-1,0-1.9-0.1-2.6h1.9l0.1,1.3h0.1c0.4-0.7,1.4-1.5,2.8-1.5c1.5,0,3.1,1,3.1,3.8v5.2h-2.2v-5
					c0-1.3-0.5-2.2-1.7-2.2c-0.9,0-1.5,0.6-1.7,1.3c-0.1,0.2-0.1,0.5-0.1,0.7v5.2h-2.2V185.9z"/>
				<path class="st2" d="M350.4,189.9c0,0.8,0,1.6,0.1,2.1h-2l-0.2-1h-0.1c-0.5,0.7-1.4,1.2-2.6,1.2c-1.8,0-2.8-1.3-2.8-2.6
					c0-2.2,2-3.3,5.2-3.3v-0.1c0-0.6-0.2-1.5-1.8-1.5c-0.9,0-1.8,0.3-2.4,0.6l-0.4-1.4c0.6-0.4,1.8-0.8,3.2-0.8
					c2.8,0,3.6,1.8,3.6,3.7V189.9z M348.3,187.7c-1.6,0-3.1,0.3-3.1,1.6c0,0.9,0.6,1.3,1.3,1.3c0.9,0,1.5-0.6,1.7-1.2
					c0.1-0.2,0.1-0.3,0.1-0.5V187.7z"/>
				<path class="st2" d="M352.8,185.9c0-1,0-1.9-0.1-2.6h1.9l0.1,1.3h0.1c0.4-0.7,1.4-1.5,2.8-1.5c1.5,0,3.1,1,3.1,3.8v5.2h-2.2v-5
					c0-1.3-0.5-2.2-1.7-2.2c-0.9,0-1.5,0.6-1.7,1.3c-0.1,0.2-0.1,0.5-0.1,0.7v5.2h-2.2V185.9z"/>
				<path class="st2" d="M369.5,191.7c-0.5,0.2-1.4,0.5-2.5,0.5c-2.7,0-4.5-1.8-4.5-4.5c0-2.6,1.8-4.7,4.9-4.7
					c0.8,0,1.6,0.2,2.1,0.4l-0.4,1.7c-0.4-0.2-0.9-0.3-1.7-0.3c-1.7,0-2.7,1.2-2.7,2.8c0,1.8,1.2,2.8,2.7,2.8c0.8,0,1.3-0.2,1.7-0.3
					L369.5,191.7z"/>
				<path class="st2" d="M373.5,180.8c0,0.6-0.5,1.2-1.3,1.2c-0.7,0-1.2-0.5-1.2-1.2c0-0.7,0.5-1.2,1.2-1.2
					C373,179.6,373.5,180.1,373.5,180.8z M371.1,192v-8.8h2.2v8.8H371.1z"/>
				<path class="st2" d="M382.6,189.9c0,0.8,0,1.6,0.1,2.1h-2l-0.2-1h-0.1c-0.5,0.7-1.4,1.2-2.6,1.2c-1.8,0-2.8-1.3-2.8-2.6
					c0-2.2,2-3.3,5.2-3.3v-0.1c0-0.6-0.2-1.5-1.8-1.5c-0.9,0-1.8,0.3-2.4,0.6l-0.4-1.4c0.6-0.4,1.8-0.8,3.2-0.8
					c2.8,0,3.6,1.8,3.6,3.7V189.9z M380.4,187.7c-1.6,0-3.1,0.3-3.1,1.6c0,0.9,0.6,1.3,1.3,1.3c0.9,0,1.5-0.6,1.7-1.2
					c0.1-0.2,0.1-0.3,0.1-0.5V187.7z"/>
				<path class="st2" d="M393,179.2v10.3c0,0.9,0,1.9,0.1,2.5h-2l-0.1-1.4h0c-0.5,1-1.6,1.6-2.8,1.6c-2.1,0-3.8-1.8-3.8-4.5
					c0-2.9,1.8-4.7,3.9-4.7c1.2,0,2.1,0.5,2.5,1.1h0v-5H393z M390.8,186.9c0-0.2,0-0.4-0.1-0.6c-0.2-0.8-0.9-1.5-1.9-1.5
					c-1.4,0-2.2,1.3-2.2,2.9c0,1.6,0.8,2.8,2.2,2.8c0.9,0,1.7-0.6,1.9-1.6c0.1-0.2,0.1-0.4,0.1-0.6V186.9z"/>
				<path class="st2" d="M403.7,187.6c0,3.2-2.3,4.7-4.5,4.7c-2.5,0-4.4-1.7-4.4-4.5c0-2.9,1.9-4.6,4.5-4.6
					C401.9,183,403.7,184.9,403.7,187.6z M397.1,187.6c0,1.7,0.8,3,2.2,3c1.3,0,2.1-1.2,2.1-3c0-1.4-0.6-3-2.1-3
					C397.7,184.7,397.1,186.2,397.1,187.6z"/>
				<path class="st2" d="M409.2,186.2c0-1.2,0-2.1-0.1-2.9h1.9l0.1,1.4h0c0.6-1,1.7-1.5,3-1.5c2,0,3.7,1.7,3.7,4.5
					c0,3.2-2,4.7-4,4.7c-1.1,0-2-0.5-2.5-1.2h0v4.5h-2.2V186.2z M411.4,188.3c0,0.2,0,0.4,0.1,0.6c0.2,0.9,1,1.5,2,1.5
					c1.4,0,2.2-1.2,2.2-2.9c0-1.5-0.8-2.8-2.2-2.8c-0.9,0-1.8,0.7-2,1.6c0,0.2-0.1,0.4-0.1,0.6V188.3z"/>
				<path class="st2" d="M421.3,188.3c0.1,1.6,1.3,2.3,2.7,2.3c1,0,1.7-0.2,2.4-0.4l0.3,1.5c-0.8,0.3-1.8,0.6-3.1,0.6
					c-2.8,0-4.5-1.7-4.5-4.4c0-2.4,1.5-4.7,4.3-4.7c2.8,0,3.8,2.3,3.8,4.3c0,0.4,0,0.7-0.1,0.9H421.3z M425.2,186.7
					c0-0.8-0.3-2.1-1.8-2.1c-1.4,0-1.9,1.2-2,2.1H425.2z"/>
				<path class="st2" d="M429,179.2h2.2V192H429V179.2z"/>
				<path class="st2" d="M440.5,189.9c0,0.8,0,1.6,0.1,2.1h-2l-0.2-1h-0.1c-0.5,0.7-1.4,1.2-2.6,1.2c-1.8,0-2.8-1.3-2.8-2.6
					c0-2.2,2-3.3,5.2-3.3v-0.1c0-0.6-0.2-1.5-1.8-1.5c-0.9,0-1.8,0.3-2.4,0.6l-0.4-1.4c0.6-0.4,1.8-0.8,3.2-0.8
					c2.8,0,3.6,1.8,3.6,3.7V189.9z M438.3,187.7c-1.6,0-3.1,0.3-3.1,1.6c0,0.9,0.6,1.3,1.3,1.3c0.9,0,1.5-0.6,1.7-1.2
					c0.1-0.2,0.1-0.3,0.1-0.5V187.7z"/>
				<path class="st2" d="M305.1,201.5v7.1c0,2.4,1,3.5,2.5,3.5c1.6,0,2.6-1.1,2.6-3.5v-7.1h2.2v6.9c0,3.7-1.9,5.4-4.8,5.4
					c-2.8,0-4.6-1.6-4.6-5.4v-7H305.1z"/>
				<path class="st2" d="M314.8,207.5c0-1,0-1.9-0.1-2.6h1.9l0.1,1.3h0.1c0.4-0.7,1.4-1.5,2.8-1.5c1.5,0,3.1,1,3.1,3.8v5.2h-2.2v-5
					c0-1.3-0.5-2.2-1.7-2.2c-0.9,0-1.5,0.6-1.7,1.3c-0.1,0.2-0.1,0.5-0.1,0.7v5.2h-2.2V207.5z"/>
				<path class="st2" d="M327.5,202.4c0,0.6-0.5,1.2-1.3,1.2c-0.7,0-1.2-0.5-1.2-1.2c0-0.7,0.5-1.2,1.2-1.2
					C327,201.2,327.4,201.7,327.5,202.4z M325.1,213.6v-8.8h2.2v8.8H325.1z"/>
				<path class="st2" d="M336.5,211.5c0,0.8,0,1.6,0.1,2.1h-2l-0.2-1h-0.1c-0.5,0.7-1.4,1.2-2.6,1.2c-1.8,0-2.8-1.3-2.8-2.6
					c0-2.2,2-3.3,5.2-3.3v-0.1c0-0.6-0.2-1.5-1.8-1.5c-0.9,0-1.8,0.3-2.4,0.6l-0.4-1.4c0.6-0.4,1.8-0.8,3.2-0.8
					c2.8,0,3.6,1.8,3.6,3.7V211.5z M330.6,203.5c-0.1-1.4,0.5-2.1,1.4-2.1c0.4,0,0.8,0.2,1.1,0.4c0.3,0.2,0.5,0.3,0.8,0.3
					c0.3,0,0.4-0.2,0.5-0.8h1.1c0,1.4-0.5,2.1-1.4,2.1c-0.5,0-0.8-0.2-1.2-0.4c-0.3-0.2-0.5-0.3-0.7-0.3c-0.3,0-0.4,0.3-0.4,0.8
					H330.6z M334.4,209.3c-1.6,0-3.1,0.3-3.1,1.6c0,0.9,0.6,1.3,1.3,1.3c0.9,0,1.5-0.6,1.7-1.2c0.1-0.2,0.1-0.3,0.1-0.5V209.3z"/>
				<path class="st2" d="M347.2,209.2c0,3.2-2.3,4.7-4.5,4.7c-2.5,0-4.4-1.7-4.4-4.5c0-2.9,1.9-4.6,4.5-4.6
					C345.4,204.6,347.2,206.5,347.2,209.2z M340.6,209.2c0,1.7,0.8,3,2.2,3c1.3,0,2.1-1.2,2.1-3c0-1.4-0.6-3-2.1-3
					C341.2,206.3,340.6,207.8,340.6,209.2z"/>
				<path class="st2" d="M359.6,208.2H355v3.6h5.1v1.8h-7.3v-12.1h7.1v1.8H355v3.1h4.6V208.2z"/>
				<path class="st2" d="M369.7,211c0,1,0,1.9,0.1,2.6h-1.9l-0.1-1.3h-0.1c-0.4,0.6-1.2,1.5-2.8,1.5c-1.6,0-3-1-3-3.8v-5.1h2.2v4.8
					c0,1.5,0.5,2.4,1.6,2.4c0.9,0,1.5-0.6,1.7-1.2c0.1-0.2,0.1-0.4,0.1-0.7v-5.3h2.2V211z"/>
				<path class="st2" d="M372.1,207.7c0-1.2,0-2.1-0.1-2.8h1.9l0.1,1.7h0.1c0.4-1.2,1.5-1.9,2.4-1.9c0.2,0,0.3,0,0.5,0.1v2.1
					c-0.2,0-0.4-0.1-0.7-0.1c-1,0-1.8,0.7-2,1.7c0,0.2-0.1,0.4-0.1,0.7v4.6h-2.2V207.7z"/>
				<path class="st2" d="M386.7,209.2c0,3.2-2.3,4.7-4.5,4.7c-2.5,0-4.4-1.7-4.4-4.5c0-2.9,1.9-4.6,4.5-4.6
					C384.9,204.6,386.7,206.5,386.7,209.2z M380.1,209.2c0,1.7,0.8,3,2.2,3c1.3,0,2.1-1.2,2.1-3c0-1.4-0.6-3-2.1-3
					C380.7,206.3,380.1,207.8,380.1,209.2z"/>
				<path class="st2" d="M388.5,207.8c0-1.2,0-2.1-0.1-2.9h1.9l0.1,1.4h0c0.6-1,1.7-1.5,3-1.5c2,0,3.7,1.7,3.7,4.5
					c0,3.2-2,4.7-4,4.7c-1.1,0-2-0.5-2.5-1.2h0v4.5h-2.2V207.8z M390.7,209.9c0,0.2,0,0.4,0.1,0.6c0.2,0.9,1,1.5,2,1.5
					c1.4,0,2.2-1.2,2.2-2.9c0-1.5-0.8-2.8-2.2-2.8c-0.9,0-1.8,0.7-2,1.6c0,0.2-0.1,0.4-0.1,0.6V209.9z"/>
				<path class="st2" d="M400.6,209.9c0.1,1.6,1.3,2.3,2.7,2.3c1,0,1.7-0.2,2.4-0.4l0.3,1.5c-0.8,0.3-1.8,0.6-3.1,0.6
					c-2.8,0-4.5-1.7-4.5-4.4c0-2.4,1.5-4.7,4.3-4.7c2.8,0,3.8,2.3,3.8,4.3c0,0.4,0,0.7-0.1,0.9H400.6z M404.4,208.3
					c0-0.8-0.3-2.1-1.8-2.1c-1.4,0-1.9,1.2-2,2.1H404.4z"/>
				<path class="st2" d="M410.7,202.4c0,0.6-0.5,1.2-1.3,1.2c-0.7,0-1.2-0.5-1.2-1.2c0-0.7,0.5-1.2,1.2-1.2
					C410.2,201.2,410.6,201.7,410.7,202.4z M408.3,213.6v-8.8h2.2v8.8H408.3z"/>
				<path class="st2" d="M419.7,211.5c0,0.8,0,1.6,0.1,2.1h-2l-0.2-1h-0.1c-0.5,0.7-1.4,1.2-2.6,1.2c-1.8,0-2.8-1.3-2.8-2.6
					c0-2.2,2-3.3,5.2-3.3v-0.1c0-0.6-0.2-1.5-1.8-1.5c-0.9,0-1.8,0.3-2.4,0.6l-0.4-1.4c0.6-0.4,1.8-0.8,3.2-0.8
					c2.8,0,3.6,1.8,3.6,3.7V211.5z M417.5,209.3c-1.6,0-3.1,0.3-3.1,1.6c0,0.9,0.6,1.3,1.3,1.3c0.9,0,1.5-0.6,1.7-1.2
					c0.1-0.2,0.1-0.3,0.1-0.5V209.3z"/>
			</g>
			<g>
				<rect x="301.6" y="229.7" class="st1" width="153.8" height="102.6"/>
				<g>
					<polygon class="st3" points="378.3,241.1 377,244.9 373.2,244.9 376.1,247.4 375.3,250.8 378.3,248.7 381.2,250.8 380.4,247.4 
						383.4,244.9 379.6,244.9 					"/>
					<polygon class="st3" points="378.3,309 377,312.8 373.2,312.8 376.1,315.3 375.3,318.7 378.3,316.6 381.2,318.7 380.4,315.3 
						383.4,312.8 379.6,312.8 					"/>
					<polygon class="st3" points="344.1,275 342.8,278.9 339,278.9 341.9,281.5 341.1,284.9 344.1,282.7 347.1,284.9 346.2,281.5 
						349.2,278.9 345.4,278.9 					"/>
					<polygon class="st3" points="412.5,275 411.2,278.9 407.4,278.9 410.3,281.5 409.4,284.9 412.5,282.7 415.4,284.9 414.6,281.5 
						417.6,278.9 413.8,278.9 					"/>
					<polygon class="st3" points="361.2,246.2 359.9,250 356.1,250 359,252.6 358.2,255.9 361.2,253.9 364.2,255.9 363.3,252.6 
						366.3,250 362.5,250 					"/>
					<polygon class="st3" points="395.4,246.2 394.1,250 390.3,250 393.2,252.6 392.3,255.9 395.4,253.9 398.3,255.9 397.6,252.6 
						400.5,250 396.7,250 					"/>
					<polygon class="st3" points="361.2,303.9 359.9,307.7 356.1,307.7 359,310.2 358.2,313.6 361.2,311.5 364.2,313.6 363.3,310.2 
						366.3,307.7 362.5,307.7 					"/>
					<polygon class="st3" points="395.4,303.9 394.1,307.7 390.3,307.7 393.2,310.2 392.3,313.6 395.4,311.5 398.3,313.6 
						397.6,310.2 400.5,307.7 396.7,307.7 					"/>
					<polygon class="st3" points="349.2,258.1 347.9,261.9 344.1,261.9 347.1,264.4 346.2,267.8 349.2,265.8 352.2,267.8 
						351.4,264.4 354.3,261.9 350.5,261.9 					"/>
					<polygon class="st3" points="407.4,258.1 406.1,261.9 402.2,261.9 405.2,264.4 404.3,267.8 407.4,265.8 410.3,267.8 
						409.4,264.4 412.5,261.9 408.7,261.9 					"/>
					<polygon class="st3" points="349.2,292.1 347.9,295.8 344.1,295.8 347.1,298.3 346.2,301.7 349.2,299.6 352.2,301.7 
						351.4,298.3 354.3,295.8 350.5,295.8 					"/>
					<polygon class="st3" points="407.4,292.1 406.1,295.8 402.2,295.8 405.2,298.3 404.3,301.7 407.4,299.6 410.3,301.7 
						409.4,298.3 412.5,295.8 408.7,295.8 					"/>
				</g>
			</g>
		</g>
	</g>
</g>
</svg>
