<?xml version="1.0" encoding="utf-8"?>
<!-- Generator: Adobe Illustrator 21.1.0, SVG Export Plug-In . SVG Version: 6.00 Build 0)  -->
<svg version="1.1" xmlns="http://www.w3.org/2000/svg" xmlns:xlink="http://www.w3.org/1999/xlink" x="0px" y="0px"
	 viewBox="0 0 510.2 510.2" style="enable-background:new 0 0 510.2 510.2;" xml:space="preserve">
<style type="text/css">
	.st0{fill:#FFFFFF;stroke:#004996;stroke-width:2;stroke-miterlimit:10;}
	.st1{fill:#004996;}
	.st2{fill:#575756;}
	.st3{fill:#FFED00;}
</style>
<g id="Layer_2">
	<path class="st0" d="M379.4,473.4H145c-20.2,0-36.7-16.5-36.7-36.7v-361c0-20.2,16.5-36.7,36.7-36.7h234.4
		c20.2,0,36.7,16.5,36.7,36.7v361C416.1,456.9,399.6,473.4,379.4,473.4z"/>
</g>
<g id="Layer_1">
	<g>
		<path class="st1" d="M245.4,180.1c9.3-9.3,24.4-9.3,33.7,0c9.3,9.3,9.3,24.4,0,33.7c-9.3,9.3-24.4,9.3-33.7,0
			C236.1,204.5,236.1,189.5,245.4,180.1z"/>
		<path class="st1" d="M224.6,159.4l-11.9-11.9c27.3-27.3,71.6-27.3,98.9,0l-11.9,11.9C279.1,138.7,245.4,138.7,224.6,159.4z"/>
		<path class="st1" d="M201.2,135.9L189.3,124c40.2-40.2,105.6-40.2,145.8,0l-11.9,11.9C289.6,102.3,234.8,102.3,201.2,135.9z"/>
		<path class="st1" d="M178.9,113.6l-11.9-11.9c52.5-52.5,137.8-52.5,190.3,0l-11.9,11.9C299.6,67.7,224.8,67.7,178.9,113.6z"/>
		<g>
			<path class="st1" d="M202.3,259.1l-1.3,4l-1,2.9c-0.3,0.8-0.6,1.4-2.1,1.4h-4.4c-1.4,0-1.9-0.5-2.2-1.4l-6.6-24
				c-0.2-0.7-0.1-1.2,0.8-1.2h5.7c1.1,0,1.6,0.3,1.8,1.3l1.7,7.8l1.6,7.1h0.2l1.3-4.6l1.2-4.2l-2-6.3c-0.2-0.5,0-1.2,0.6-1.2h5.2
				c1.1,0,1.6,0.3,1.9,1.3l2.2,9l1.4,6h0.2l1.2-6.8l1.6-8.2c0.2-1,0.8-1.3,2-1.3h5.4c0.9,0,1,0.5,0.8,1.2l-6,24
				c-0.3,0.9-0.8,1.4-2.2,1.4h-4.4c-1.6,0-1.8-0.6-2.1-1.4l-0.9-2.9l-1.3-4H202.3z"/>
			<path class="st1" d="M225.6,245.9c-3.4,0-3.8-1.9-3.8-3.6c0-1.9,0.8-3.5,3.8-3.5c3.2,0,3.8,1.5,3.8,3.5
				C229.5,244.1,228.9,245.9,225.6,245.9z M229.3,266.4c0,0.3-0.1,1-0.9,1h-5.6c-0.8,0-1-0.4-1-1v-18c0-0.5,0.2-1,1-1h5.6
				c0.8,0,0.9,0.6,0.9,1V266.4z"/>
			<path class="st1" d="M234.2,241.8c0-0.5,0.2-1,1-1h16.5c0.6,0,1,0.4,1,1v4.6c0,0.5-0.2,0.9-1,0.9h-9.6v3.2h8c0.6,0,1,0.4,1,1v4.6
				c0,0.5-0.2,0.9-1,0.9h-8v9.6c0,0.3-0.1,1-0.9,1h-6c-0.8,0-1-0.4-1-1L234.2,241.8z"/>
			<path class="st1" d="M259.2,245.9c-3.4,0-3.8-1.9-3.8-3.6c0-1.9,0.8-3.5,3.8-3.5c3.2,0,3.8,1.5,3.8,3.5
				C263,244.1,262.4,245.9,259.2,245.9z M262.8,266.4c0,0.3-0.1,1-0.9,1h-5.6c-0.8,0-1-0.4-1-1v-18c0-0.5,0.2-1,1-1h5.6
				c0.8,0,0.9,0.6,0.9,1V266.4z"/>
			<path class="st1" d="M285.8,266.4c0,0.3-0.1,1-0.9,1h-5.7c-0.8,0-1-0.4-1-1V262l-11,0c-0.7,0-1.3-0.3-1.3-1.2v-3.8
				c0-0.4,0-0.8,0.4-1.4l10.9-14c0.5-0.6,1-0.8,1.8-0.8h5.7c0.8,0,0.9,0.6,0.9,1v13.9h2.4c0.8,0,0.9,0.3,0.9,0.9v4.4
				c0,0.7-0.1,1-0.9,1l-2.4,0V266.4z M278.2,250.4l-3.9,5.3v0.2h4.1v-5.5H278.2z"/>
			<path class="st1" d="M292.4,241.8c0-0.5,0.2-1,1-1h16.8c0.6,0,1,0.4,1,1v4.6c0,0.5-0.2,0.9-1,0.9h-9.9v3.2h8.6c0.6,0,1,0.4,1,1
				v4.6c0,0.5-0.2,0.9-1,0.9h-8.6v4.1h10.1c0.6,0,1,0.4,1,1v4.6c0,0.5-0.2,0.9-1,0.9h-17c-0.8,0-1-0.4-1-1V241.8z"/>
			<path class="st1" d="M329.8,257.1l0-15.4c0-0.5,0.2-1,1-1h5.9c0.8,0,0.9,0.6,0.9,1v15.6c0,1.5-0.1,3.1-0.8,4.8
				c-1.7,4-6,5.6-10.2,5.6c-3.8,0-6.6-1.2-8.4-3.1c-1.7-1.9-2.5-4.4-2.5-7.3v-15.6c0-0.5,0.2-1,1-1h5.9c0.8,0,0.9,0.6,0.9,1v15.4
				c0,2.7,1.1,4,3.1,4C328.7,261.1,329.8,259.8,329.8,257.1z"/>
		</g>
		<g>
			<path class="st2" d="M196.2,304.7c-0.1-1.6-0.2-3.5-0.1-5.1H196c-0.4,1.5-0.9,3.1-1.4,4.6l-1.7,5.3h-1.6l-1.5-5.2
				c-0.4-1.5-0.9-3.2-1.2-4.7h0c-0.1,1.6-0.1,3.5-0.2,5.2l-0.3,4.9h-2l0.8-12.1h2.8l1.5,4.9c0.4,1.4,0.8,2.9,1.1,4.2h0.1
				c0.3-1.3,0.7-2.8,1.1-4.2l1.6-4.9h2.7l0.7,12.1h-2.1L196.2,304.7z"/>
			<path class="st2" d="M202,304.9c-1-0.3-1.5-1-1.5-1.8c0-1.2,1.1-2.4,3.5-2.4c1.1,0,2,0.2,2.7,0.7l-0.4,1.4
				c-0.4-0.3-1.2-0.5-2-0.5c-1,0-1.6,0.4-1.6,1c0,0.7,0.8,1,2.1,1h0.9v1.5h-0.9c-1.3,0-2.3,0.3-2.3,1.2c0,0.8,0.9,1.3,1.9,1.3
				c0.8,0,1.8-0.3,2.3-0.6l0.3,1.5c-0.8,0.5-2.1,0.8-3.2,0.8c-1.8,0-3.7-0.7-3.7-2.7C200,306.1,200.9,305.2,202,304.9L202,304.9z"/>
			<path class="st2" d="M216.6,309.7c-0.2,0.1-0.6,0.2-1,0.2c-1.6,0-2.2-1-2.2-2.9v-4.3h-0.8c-0.8,0-1.3,0.1-1.6,0.1l-0.3-1.3
				c0.3-0.3,1-0.5,2.6-0.5h4.8l-0.2,1.7h-2.4v4.2c0,1,0.4,1.3,0.9,1.3c0.2,0,0.3,0,0.3,0L216.6,309.7z"/>
			<path class="st2" d="M221.2,302.2c0.4-0.7,1.3-1.5,2.7-1.5c1.5,0,3,1,3,3.8v5.6c0,1,0,2.5,0.2,3.2h-2c-0.2-0.5-0.3-2-0.3-3.2
				v-5.4c0-1.3-0.4-2.2-1.6-2.2c-0.8,0-1.4,0.6-1.6,1.3c-0.1,0.2-0.1,0.5-0.1,0.7v5.2h-2.1v-6.2c0-1-0.1-2-0.3-2.6h1.9
				C221.1,301.2,221.2,301.7,221.2,302.2L221.2,302.2z"/>
			<path class="st2" d="M239.1,302.3c0.9,0.7,1.3,1.9,1.3,3c0,3.2-2.1,4.6-4.1,4.6c-2.4,0-4.2-1.7-4.2-4.5c0-2.9,1.8-4.7,4.5-4.7
				c0.5,0,1.4,0,1.6,0h1.1c0.6,0,1.5,0,1.9,0l-0.1,1.6C240.7,302.3,240.1,302.3,239.1,302.3L239.1,302.3z M238.3,305.2
				c0-1.4-0.6-2.9-2-2.9c-1.5,0-2.1,1.5-2.1,3c0,1.7,0.8,3,2.1,3C237.5,308.2,238.3,307,238.3,305.2z"/>
			<path class="st2" d="M249.3,300.9c0.3,0.6,0.6,1.9,0.6,3.4c0,2.7-0.9,5.6-4.1,5.6c-2,0-3.5-1.2-3.5-3.7v-2.4c0-1.4,0-2.4-0.2-2.9
				h2c0.2,0.2,0.3,0.7,0.3,1.7v3.4c0,1.4,0.8,2.1,1.6,2.1c1.2,0,1.8-1.5,1.8-3.6c0-1.6-0.3-3.1-0.5-3.5H249.3z"/>
			<path class="st2" d="M253.7,313.2c0.1-1.7,0.1-3.3-0.3-5.1c-0.6-2.9-2-5.8-2.9-7.3h2.3c0.7,1.1,1.8,3.8,2.2,6.4h0.1
				c0.6-1.4,1.6-3.7,1.6-5.7c0-0.3,0-0.5,0-0.7h2c0,0.2,0,0.4,0,0.6c0,2.2-1.3,5.1-2.9,7.7c-0.1,0.1-0.1,0.3-0.1,0.4
				c0,0.9,0,2.3,0.1,3.5H253.7z"/>
			<path class="st2" d="M261.5,300.9l1.8,4.3h0.1c0.2-0.5,0.4-1.1,0.7-1.7l1.1-2.6h2l-2.9,5.9l3,6.3l-2,0.5l-2.2-4.9l-0.1,0
				c-0.2,0.5-0.4,1-0.7,1.7l-1.4,3.2l-1.8-0.5l3-6.2l-2.9-6H261.5z"/>
			<path class="st2" d="M270.3,308.8v1.2c0,1,0,2.5,0.1,3.2h-2c-0.1-0.5-0.2-1.8-0.2-3.1v-4c0-2.4,0.7-3.5,1.4-4.2
				c0.7-0.7,1.6-1.2,2.8-1.2c2.4,0,4,1.8,4,4.5c0,3.1-1.9,4.7-3.8,4.7C271.6,309.8,270.8,309.4,270.3,308.8L270.3,308.8z
				 M270.3,306.2c0,0.2,0,0.4,0.1,0.6c0.2,0.7,1,1.4,1.8,1.4c1.3,0,2.1-1.2,2.1-2.9c0-1.5-0.7-2.7-2-2.7c-1.1,0-2,1-2,3V306.2z"/>
			<path class="st2" d="M280.1,302.2c0.4-0.7,1.3-1.5,2.7-1.5c1.5,0,3,1,3,3.8v5.6c0,1,0,2.5,0.2,3.2h-2c-0.2-0.5-0.3-2-0.3-3.2
				v-5.4c0-1.3-0.4-2.2-1.6-2.2c-0.8,0-1.4,0.6-1.6,1.3c-0.1,0.2-0.1,0.5-0.1,0.7v5.2h-2.1v-6.2c0-1-0.1-2-0.3-2.6h1.9
				C279.9,301.2,280,301.7,280.1,302.2L280.1,302.2z"/>
			<path class="st2" d="M293.6,308.4c-0.3,0.7-1.1,1.4-2.2,1.4c-0.6,0-1.1-0.2-1.5-0.7v0.9c0,1,0,2.5,0.2,3.2h-1.9
				c-0.2-0.5-0.2-1.9-0.2-3.2v-9.1h2.1v5c0,1.2,0.5,2.1,1.5,2.1c0.8,0,1.4-0.6,1.6-1.2c0.1-0.2,0.1-0.5,0.1-0.7v-5.3h2.1v6.1
				c0,0.8,0.2,1.1,0.7,1.2l-0.1,1.5c-0.2,0.1-0.4,0.1-0.7,0.1C294.4,309.8,293.8,309.4,293.6,308.4L293.6,308.4z"/>
			<path class="st2" d="M305.3,300.9c-0.1,1.2-0.2,3.9-0.2,6c0,1,0.3,1.4,0.8,1.3l-0.1,1.6c-0.1,0.1-0.5,0.1-0.7,0.1
				c-0.9,0-1.5-0.5-1.6-1.7h-0.1c-0.6,1.1-1.5,1.7-2.8,1.7c-2,0-3.4-1.7-3.4-4.4c0-2.9,1.8-4.8,3.8-4.8c1.1,0,1.9,0.5,2.4,1.5h0.1
				c0.1-0.5,0.1-1,0.2-1.3H305.3z M301.2,308.1c0.9,0,1.6-0.9,1.8-1.9c0.1-0.3,0.1-0.6,0.1-1c0-0.3,0-0.6-0.1-0.8
				c-0.2-1.1-0.9-1.9-1.8-1.9c-1.2,0-2,1.3-2,3C299.3,306.8,300,308.1,301.2,308.1z"/>
			<path class="st2" d="M312.1,309.7c-0.2,0.1-0.6,0.2-1,0.2c-1.6,0-2.2-1-2.2-2.9v-4.3H308c-0.8,0-1.3,0.1-1.6,0.1l-0.3-1.3
				c0.3-0.3,1-0.5,2.6-0.5h4.8l-0.2,1.7h-2.4v4.2c0,1,0.4,1.3,0.9,1.3c0.2,0,0.3,0,0.3,0L312.1,309.7z"/>
			<path class="st2" d="M314.1,305.3c0-2.9,1.8-4.6,4.3-4.6c2.5,0,4.1,1.8,4.1,4.5c0,3.2-2.2,4.7-4.3,4.7
				C316,309.8,314.1,308.2,314.1,305.3z M320.4,305.2c0-1.4-0.6-3-2-3c-1.5,0-2.1,1.5-2.1,3c0,1.7,0.8,3,2.1,3
				C319.6,308.2,320.4,307,320.4,305.2z"/>
			<path class="st2" d="M330.9,299c-0.3-0.3-1.3-0.7-2.2-0.7c-0.8,0-1.1,0.3-1.1,0.6s0.4,0.7,1.1,1.2l1.4,1.2c1.3,1.1,2.1,2.4,2.1,4
				c0,2.8-1.9,4.5-4.2,4.5c-2.3,0-4.2-1.7-4.2-4.4c0-2.2,1.5-3.6,3-4.4V301l-0.3-0.3c-0.4-0.3-1-1-1-1.8c0-1.1,1.1-2.2,3.2-2.2
				c1.3,0,2.4,0.5,2.9,0.9L330.9,299z M327.9,302.1c-1.1,0.6-2,1.7-2,3.3c0,1.7,1,2.8,2.1,2.8c1.1,0,2-1,2-2.7c0-1-0.5-1.9-1.3-2.7
				L327.9,302.1z"/>
			<path class="st2" d="M333.4,305.3c0-2.9,1.8-4.6,4.3-4.6c2.5,0,4.1,1.8,4.1,4.5c0,3.2-2.2,4.7-4.3,4.7
				C335.2,309.8,333.4,308.2,333.4,305.3z M339.7,305.2c0-1.4-0.6-3-2-3c-1.5,0-2.1,1.5-2.1,3c0,1.7,0.8,3,2.1,3
				C338.8,308.2,339.7,307,339.7,305.2z M339.6,297.2l-1.4,2.7h-1.4l0.8-2.7H339.6z"/>
			<path class="st2" d="M348.2,309.7c-0.2,0.1-0.6,0.2-1,0.2c-1.6,0-2.2-1-2.2-2.9v-4.3h-0.8c-0.8,0-1.3,0.1-1.6,0.1l-0.3-1.3
				c0.3-0.3,1-0.5,2.6-0.5h4.8l-0.2,1.7H347v4.2c0,1,0.4,1.3,0.9,1.3c0.2,0,0.3,0,0.3,0L348.2,309.7z"/>
			<path class="st2" d="M352.8,302.2c0.4-0.7,1.3-1.5,2.7-1.5c1.5,0,3,1,3,3.8v5.6c0,1,0,2.5,0.2,3.2h-2c-0.2-0.5-0.3-2-0.3-3.2
				v-5.4c0-1.3-0.4-2.2-1.6-2.2c-0.8,0-1.4,0.6-1.6,1.3c-0.1,0.2-0.1,0.5-0.1,0.7v5.2h-2.1v-6.2c0-1-0.1-2-0.3-2.6h1.9
				C352.7,301.2,352.8,301.7,352.8,302.2L352.8,302.2z"/>
			<path class="st2" d="M367.2,302.3c0.9,0.7,1.3,1.9,1.3,3c0,3.2-2.1,4.6-4.1,4.6c-2.4,0-4.2-1.7-4.2-4.5c0-2.9,1.8-4.7,4.5-4.7
				c0.5,0,1.4,0,1.6,0h1.1c0.6,0,1.5,0,1.9,0l-0.1,1.6C368.7,302.3,368.2,302.3,367.2,302.3L367.2,302.3z M366.4,305.2
				c0-1.4-0.6-2.9-2-2.9c-1.5,0-2.1,1.5-2.1,3c0,1.7,0.8,3,2.1,3C365.5,308.2,366.4,307,366.4,305.2z"/>
			<path class="st2" d="M372.6,302.2c0.4-0.7,1.3-1.5,2.7-1.5c1.5,0,3,1,3,3.8v5.6c0,1,0,2.5,0.2,3.2h-2c-0.2-0.5-0.3-2-0.3-3.2
				v-5.4c0-1.3-0.4-2.2-1.6-2.2c-0.8,0-1.4,0.6-1.6,1.3c-0.1,0.2-0.1,0.5-0.1,0.7v5.2h-2.1v-6.2c0-1-0.1-2-0.3-2.6h1.9
				C372.4,301.2,372.5,301.7,372.6,302.2L372.6,302.2z"/>
			<path class="st2" d="M191.1,331.3c-0.2,0.1-0.6,0.2-1,0.2c-1.6,0-2.2-1-2.2-2.9v-4.3h-0.8c-0.8,0-1.3,0.1-1.6,0.1l-0.3-1.3
				c0.3-0.3,1-0.5,2.6-0.5h4.8l-0.2,1.7h-2.4v4.2c0,1,0.4,1.3,0.9,1.3c0.2,0,0.3,0,0.3,0L191.1,331.3z"/>
			<path class="st2" d="M195.8,323.8c0.4-0.7,1.3-1.5,2.7-1.5c1.5,0,3,1,3,3.8v5.6c0,1,0,2.5,0.2,3.2h-2c-0.2-0.5-0.3-2-0.3-3.2
				v-5.4c0-1.3-0.4-2.2-1.6-2.2c-0.8,0-1.4,0.6-1.6,1.3c-0.1,0.2-0.1,0.5-0.1,0.7v5.2h-2.1v-6.2c0-1-0.1-2-0.3-2.6h1.9
				C195.6,322.8,195.7,323.3,195.8,323.8L195.8,323.8z"/>
			<path class="st2" d="M209.4,324.3c-0.4-0.2-0.9-0.3-1.5-0.3c-1.6,0-2.6,1.3-2.6,3c0,1.5,0.8,2.3,2,2.7c0.8,0.3,1.5,0.4,2.3,0.5
				c0.1,0,0.2,0.1,0.2,0.3c0,1.1-0.6,2.9-1.1,3.5l-1.4-0.5c0.2-0.4,0.5-1.4,0.5-1.9c-0.5-0.1-1-0.2-1.5-0.3
				c-1.7-0.5-3.2-1.8-3.2-4.2c0-2.4,1.7-4.8,4.7-4.8c0.8,0,1.5,0.2,2,0.4L209.4,324.3z"/>
			<path class="st2" d="M221.2,325.9h-4.3v3.6h4.9v1.8h-7v-12.1h6.7v1.8h-4.6v3.1h4.3V325.9z"/>
			<path class="st2" d="M230.3,322.5c0.3,0.6,0.6,1.9,0.6,3.4c0,2.7-0.9,5.6-4.1,5.6c-2,0-3.5-1.2-3.5-3.7v-2.4c0-1.4,0-2.4-0.2-2.9
				h2c0.2,0.2,0.3,0.7,0.3,1.7v3.4c0,1.4,0.8,2.1,1.6,2.1c1.2,0,1.8-1.5,1.8-3.6c0-1.6-0.3-3.1-0.5-3.5H230.3z"/>
			<path class="st2" d="M234.7,330.4v1.2c0,1,0,2.5,0.1,3.2h-2c-0.1-0.5-0.2-1.8-0.2-3.1v-4c0-2.4,0.7-3.5,1.4-4.2
				c0.7-0.7,1.6-1.2,2.8-1.2c2.4,0,4,1.8,4,4.5c0,3.1-1.9,4.7-3.8,4.7C236,331.4,235.2,331,234.7,330.4L234.7,330.4z M234.7,327.8
				c0,0.2,0,0.4,0.1,0.6c0.2,0.7,1,1.4,1.8,1.4c1.3,0,2.1-1.2,2.1-2.9c0-1.5-0.7-2.7-2-2.7c-1.1,0-2,1-2,3V327.8z"/>
			<path class="st2" d="M248.5,327.9c0,0.9,0.4,1.7,1.1,1.7c0.8,0,1.4-1,1.4-3.1c0-1.6-0.5-3.2-1.3-4.1v-0.1h1.9
				c0.7,0.6,1.4,2.2,1.4,4.2c0,3.2-1.6,4.9-3.3,4.9c-1,0-1.8-0.6-2.2-1.5h-0.1c-0.4,0.9-1.2,1.5-2.2,1.5c-1.6,0-3.2-1.4-3.2-4.7
				c0-2,0.7-3.6,1.4-4.4h1.9v0.1c-0.7,0.9-1.3,2.5-1.3,4.2c0,2.1,0.8,2.9,1.4,2.9c0.6,0,1.1-0.7,1.1-1.7l0-3.3h2L248.5,327.9z"/>
			<path class="st2" d="M262,324.2v4.4c0,1.3,0.1,2.2,0.2,2.7h-2c-0.2-0.3-0.3-1.3-0.3-2.5v-4.6h-2.2c-0.1,2.2-0.5,5.7-1,7.1h-2
				c0.5-1.7,1-5,1-7.1c-0.6,0-1.1,0-1.6,0.1l-0.2-1.3c0.4-0.3,1.2-0.5,2.7-0.5h6.7l-0.2,1.7H262z"/>
			<path class="st2" d="M272.3,322.5c-0.1,1.2-0.2,3.9-0.2,6c0,1,0.3,1.4,0.8,1.3l-0.1,1.6c-0.1,0.1-0.5,0.1-0.7,0.1
				c-0.9,0-1.5-0.5-1.6-1.7h-0.1c-0.6,1.1-1.5,1.7-2.8,1.7c-2,0-3.4-1.7-3.4-4.4c0-2.9,1.8-4.8,3.8-4.8c1.1,0,1.9,0.5,2.4,1.5h0.1
				c0.1-0.5,0.1-1,0.2-1.3H272.3z M268.2,329.7c0.9,0,1.6-0.9,1.8-1.9c0.1-0.3,0.1-0.6,0.1-1c0-0.3,0-0.6-0.1-0.8
				c-0.2-1.1-0.9-1.9-1.8-1.9c-1.2,0-2,1.3-2,3C266.3,328.4,267,329.7,268.2,329.7z"/>
			<path class="st2" d="M272.8,320.2c0-0.6,0.5-1.1,1-1.1c0.6,0,1,0.5,1,1.1c0,0.6-0.4,1.1-1,1.1
				C273.3,321.3,272.8,320.8,272.8,320.2z M276.5,328.8c0,0.7,0.2,1,0.8,1l-0.1,1.5c-0.2,0.1-0.6,0.1-0.9,0.1
				c-1.1,0-1.9-0.5-1.9-2.4v-6.5h2.1V328.8z M276.2,320.2c0-0.6,0.4-1.1,1-1.1c0.6,0,1,0.5,1,1.1c0,0.6-0.4,1.1-1,1.1
				C276.6,321.3,276.2,320.8,276.2,320.2z"/>
			<path class="st2" d="M282.9,326.5c0.8,0.2,1.6,1.2,2.3,2.4l1.4,2.3h-2.4l-1.1-1.8c-0.7-1.1-1.3-1.9-2-1.9H281v3.7h-2.1v-6.7
				c0-0.8-0.1-1.8-0.2-2.1h2.1c0.2,0.2,0.3,0.8,0.3,1.5v2.2h0.1c1.2-1.3,2.2-2.7,3-3.8h2.4v0.1C285.4,323.8,284.2,325.1,282.9,326.5
				L282.9,326.5z"/>
			<path class="st2" d="M289.8,323.8c0.4-0.7,1.3-1.5,2.7-1.5c1.5,0,3,1,3,3.8v5.6c0,1,0,2.5,0.2,3.2h-2c-0.2-0.5-0.3-2-0.3-3.2
				v-5.4c0-1.3-0.4-2.2-1.6-2.2c-0.8,0-1.4,0.6-1.6,1.3c-0.1,0.2-0.1,0.5-0.1,0.7v5.2h-2.1v-6.2c0-1-0.1-2-0.3-2.6h1.9
				C289.6,322.8,289.7,323.3,289.8,323.8L289.8,323.8z M293.7,318.8l-1.4,2.7h-1.4l0.8-2.7H293.7z"/>
			<path class="st2" d="M303.4,324.3c-0.4-0.2-0.9-0.3-1.5-0.3c-1.6,0-2.6,1.3-2.6,3c0,1.5,0.8,2.3,2,2.7c0.8,0.3,1.5,0.4,2.3,0.5
				c0.1,0,0.2,0.1,0.2,0.3c0,1.1-0.6,2.9-1.1,3.5l-1.4-0.5c0.2-0.4,0.5-1.4,0.5-1.9c-0.5-0.1-1-0.2-1.5-0.3
				c-1.7-0.5-3.2-1.8-3.2-4.2c0-2.4,1.7-4.8,4.7-4.8c0.8,0,1.5,0.2,2,0.4L303.4,324.3z"/>
			<path class="st2" d="M309.4,319.1l-0.6,3h-1.2l0.1-3H309.4z M316.8,325.9h-4.3v3.6h4.9v1.8h-7v-12.1h6.7v1.8h-4.6v3.1h4.3V325.9z
				"/>
			<path class="st2" d="M320.2,322.5l1.3,4.4c0.2,0.8,0.4,1.5,0.6,2.2h0.1c0.7-1.5,1.7-4,1.7-5.9c0-0.3,0-0.5,0-0.8h2
				c0,0.2,0.1,0.4,0.1,0.7c0,2.5-1.5,5.4-3,8.1h-2l-3-8.8H320.2z"/>
			<path class="st2" d="M333.4,327.9c0,0.9,0.4,1.7,1.1,1.7c0.8,0,1.4-1,1.4-3.1c0-1.6-0.5-3.2-1.3-4.1v-0.1h1.9
				c0.7,0.6,1.4,2.2,1.4,4.2c0,3.2-1.6,4.9-3.3,4.9c-1,0-1.8-0.6-2.2-1.5h-0.1c-0.4,0.9-1.2,1.5-2.2,1.5c-1.6,0-3.2-1.4-3.2-4.7
				c0-2,0.7-3.6,1.4-4.4h1.9v0.1c-0.7,0.9-1.3,2.5-1.3,4.2c0,2.1,0.8,2.9,1.4,2.9c0.6,0,1.1-0.7,1.1-1.7l0-3.3h2L333.4,327.9z"/>
			<path class="st2" d="M346.2,323.9c0.9,0.7,1.3,1.9,1.3,3c0,3.2-2.1,4.6-4.1,4.6c-2.4,0-4.2-1.7-4.2-4.5c0-2.9,1.8-4.7,4.5-4.7
				c0.5,0,1.4,0,1.6,0h1.1c0.6,0,1.5,0,1.9,0l-0.1,1.6C347.8,323.9,347.3,323.9,346.2,323.9L346.2,323.9z M345.4,326.8
				c0-1.4-0.6-2.9-2-2.9c-1.5,0-2.1,1.5-2.1,3c0,1.7,0.8,3,2.1,3C344.6,329.8,345.4,328.6,345.4,326.8z"/>
			<path class="st2" d="M351.6,323.8c0.4-0.7,1.3-1.5,2.7-1.5c1.5,0,3,1,3,3.8v5.6c0,1,0,2.5,0.2,3.2h-2c-0.2-0.5-0.3-2-0.3-3.2
				v-5.4c0-1.3-0.4-2.2-1.6-2.2c-0.8,0-1.4,0.6-1.6,1.3c-0.1,0.2-0.1,0.5-0.1,0.7v5.2h-2.1v-6.2c0-1-0.1-2-0.3-2.6h1.9
				C351.5,322.8,351.6,323.3,351.6,323.8L351.6,323.8z"/>
			<path class="st2" d="M365.2,324.3c-0.4-0.2-0.9-0.3-1.5-0.3c-1.6,0-2.6,1.3-2.6,3c0,1.5,0.8,2.3,2,2.7c0.8,0.3,1.5,0.4,2.3,0.5
				c0.1,0,0.2,0.1,0.2,0.3c0,1.1-0.6,2.9-1.1,3.5l-1.4-0.5c0.2-0.4,0.5-1.4,0.5-1.9c-0.5-0.1-1-0.2-1.5-0.3
				c-1.7-0.5-3.2-1.8-3.2-4.2c0-2.4,1.7-4.8,4.7-4.8c0.8,0,1.5,0.2,2,0.4L365.2,324.3z"/>
		</g>
		<g>
			<rect x="185.3" y="347.4" class="st1" width="153.8" height="102.6"/>
			<g>
				<polygon class="st3" points="261.9,358.7 260.6,362.6 256.8,362.6 259.8,365.1 259,368.5 261.9,366.4 264.9,368.5 264.1,365.1 
					267.1,362.6 263.2,362.6 				"/>
				<polygon class="st3" points="261.9,426.6 260.6,430.4 256.8,430.4 259.8,433 259,436.3 261.9,434.3 264.9,436.3 264.1,433 
					267.1,430.4 263.2,430.4 				"/>
				<polygon class="st3" points="227.7,392.7 226.4,396.5 222.6,396.5 225.6,399.1 224.8,402.5 227.7,400.3 230.8,402.5 
					229.9,399.1 232.9,396.5 229,396.5 				"/>
				<polygon class="st3" points="296.1,392.7 294.8,396.5 291,396.5 294,399.1 293.1,402.5 296.1,400.3 299.1,402.5 298.3,399.1 
					301.3,396.5 297.4,396.5 				"/>
				<polygon class="st3" points="244.8,363.9 243.5,367.7 239.7,367.7 242.7,370.2 241.9,373.6 244.8,371.5 247.9,373.6 247,370.2 
					250,367.7 246.1,367.7 				"/>
				<polygon class="st3" points="279,363.9 277.7,367.7 273.9,367.7 276.9,370.2 276,373.6 279,371.5 282,373.6 281.2,370.2 
					284.2,367.7 280.3,367.7 				"/>
				<polygon class="st3" points="244.8,421.5 243.5,425.3 239.7,425.3 242.7,427.8 241.9,431.2 244.8,429.1 247.9,431.2 247,427.8 
					250,425.3 246.1,425.3 				"/>
				<polygon class="st3" points="279,421.5 277.7,425.3 273.9,425.3 276.9,427.8 276,431.2 279,429.1 282,431.2 281.2,427.8 
					284.2,425.3 280.3,425.3 				"/>
				<polygon class="st3" points="232.9,375.7 231.6,379.6 227.7,379.6 230.8,382.1 229.9,385.5 232.9,383.4 235.9,385.5 235,382.1 
					238,379.6 234.2,379.6 				"/>
				<polygon class="st3" points="291,375.7 289.7,379.6 285.9,379.6 288.8,382.1 288,385.5 291,383.4 294,385.5 293.1,382.1 
					296.1,379.6 292.3,379.6 				"/>
				<polygon class="st3" points="232.9,409.7 231.6,413.4 227.7,413.4 230.8,415.9 229.9,419.3 232.9,417.2 235.9,419.3 235,415.9 
					238,413.4 234.2,413.4 				"/>
				<polygon class="st3" points="291,409.7 289.7,413.4 285.9,413.4 288.8,415.9 288,419.3 291,417.2 294,419.3 293.1,415.9 
					296.1,413.4 292.3,413.4 				"/>
			</g>
		</g>
	</g>
</g>
</svg>
