<?xml version="1.0" encoding="utf-8"?>
<!-- Generator: Adobe Illustrator 21.1.0, SVG Export Plug-In . SVG Version: 6.00 Build 0)  -->
<svg version="1.1" xmlns="http://www.w3.org/2000/svg" xmlns:xlink="http://www.w3.org/1999/xlink" x="0px" y="0px"
	 viewBox="0 0 510.2 510.2" style="enable-background:new 0 0 510.2 510.2;" xml:space="preserve">
<style type="text/css">
	.st0{fill:#FFFFFF;stroke:#004996;stroke-width:2;stroke-miterlimit:10;}
	.st1{fill:#004996;}
	.st2{fill:#575756;}
	.st3{fill:#FFED00;}
</style>
<g id="Layer_2">
	<path class="st0" d="M492.8,148.9v220.1c0,22.2-18.1,40.3-40.3,40.3H56.9c-22.2,0-40.3-18.1-40.3-40.3V148.9
		c0-22.2,18.1-40.3,40.3-40.3h395.5C474.6,108.6,492.8,126.8,492.8,148.9z"/>
</g>
<g id="Layer_1">
	<g>
		<path class="st1" d="M130.4,271.2c9.3-9.3,24.4-9.3,33.7,0c9.3,9.3,9.3,24.4,0,33.7c-9.3,9.3-24.4,9.3-33.7,0
			C121.1,295.6,121.1,280.5,130.4,271.2z"/>
		<path class="st1" d="M109.6,250.4l-11.9-11.9c27.3-27.3,71.6-27.3,98.9,0l-11.9,11.9C164.1,229.7,130.4,229.7,109.6,250.4z"/>
		<path class="st1" d="M86.2,227l-11.9-11.9c40.2-40.2,105.6-40.2,145.8,0L208.2,227C174.6,193.3,119.8,193.3,86.2,227z"/>
		<path class="st1" d="M63.9,204.6l-11.9-11.9c52.5-52.5,137.8-52.5,190.3,0l-11.9,11.9C184.6,158.7,109.8,158.7,63.9,204.6z"/>
		<g>
			<path class="st1" d="M87.3,350.1l-1.3,4l-1,2.9c-0.3,0.8-0.6,1.4-2.1,1.4h-4.4c-1.4,0-1.9-0.5-2.2-1.4l-6.6-24
				c-0.2-0.7-0.1-1.2,0.8-1.2h5.7c1.1,0,1.6,0.3,1.8,1.3l1.7,7.8l1.6,7.1h0.2l1.3-4.6l1.2-4.2l-2-6.3c-0.2-0.5,0-1.2,0.6-1.2h5.2
				c1.1,0,1.6,0.3,1.9,1.3l2.2,9l1.4,6h0.2l1.2-6.8l1.6-8.2c0.2-1,0.8-1.3,2-1.3h5.4c0.9,0,1,0.5,0.8,1.2l-6,24
				c-0.3,0.9-0.8,1.4-2.2,1.4h-4.4c-1.6,0-1.8-0.6-2.1-1.4l-0.9-2.9l-1.3-4H87.3z"/>
			<path class="st1" d="M110.6,336.9c-3.4,0-3.8-1.9-3.8-3.6c0-1.9,0.8-3.5,3.8-3.5c3.2,0,3.8,1.5,3.8,3.5
				C114.5,335.1,113.9,336.9,110.6,336.9z M114.3,357.5c0,0.3-0.1,1-0.9,1h-5.6c-0.8,0-1-0.4-1-1v-18c0-0.5,0.2-1,1-1h5.6
				c0.8,0,0.9,0.6,0.9,1V357.5z"/>
			<path class="st1" d="M119.2,332.8c0-0.5,0.2-1,1-1h16.5c0.6,0,1,0.4,1,1v4.6c0,0.5-0.2,0.9-1,0.9h-9.6v3.2h8c0.6,0,1,0.4,1,1v4.6
				c0,0.5-0.2,0.9-1,0.9h-8v9.6c0,0.3-0.1,1-0.9,1h-6c-0.8,0-1-0.4-1-1L119.2,332.8z"/>
			<path class="st1" d="M144.2,336.9c-3.4,0-3.8-1.9-3.8-3.6c0-1.9,0.8-3.5,3.8-3.5c3.2,0,3.8,1.5,3.8,3.5
				C148,335.1,147.4,336.9,144.2,336.9z M147.8,357.5c0,0.3-0.1,1-0.9,1h-5.6c-0.8,0-1-0.4-1-1v-18c0-0.5,0.2-1,1-1h5.6
				c0.8,0,0.9,0.6,0.9,1V357.5z"/>
			<path class="st1" d="M170.8,357.5c0,0.3-0.1,1-0.9,1h-5.7c-0.8,0-1-0.4-1-1V353l-11,0c-0.7,0-1.3-0.3-1.3-1.2v-3.8
				c0-0.4,0-0.8,0.4-1.4l10.9-14c0.5-0.6,1-0.8,1.8-0.8h5.7c0.8,0,0.9,0.6,0.9,1v13.9h2.4c0.8,0,0.9,0.3,0.9,0.9v4.4
				c0,0.7-0.1,1-0.9,1l-2.4,0V357.5z M163.2,341.4l-3.9,5.3v0.2h4.1v-5.5H163.2z"/>
			<path class="st1" d="M177.4,332.8c0-0.5,0.2-1,1-1h16.8c0.6,0,1,0.4,1,1v4.6c0,0.5-0.2,0.9-1,0.9h-9.9v3.2h8.6c0.6,0,1,0.4,1,1
				v4.6c0,0.5-0.2,0.9-1,0.9h-8.6v4.1h10.1c0.6,0,1,0.4,1,1v4.6c0,0.5-0.2,0.9-1,0.9h-17c-0.8,0-1-0.4-1-1V332.8z"/>
			<path class="st1" d="M214.8,348.2l0-15.4c0-0.5,0.2-1,1-1h5.9c0.8,0,0.9,0.6,0.9,1v15.6c0,1.5-0.1,3.1-0.8,4.8
				c-1.7,4-6,5.6-10.2,5.6c-3.8,0-6.6-1.2-8.4-3.1c-1.7-1.9-2.5-4.4-2.5-7.3v-15.6c0-0.5,0.2-1,1-1h5.9c0.8,0,0.9,0.6,0.9,1v15.4
				c0,2.7,1.1,4,3.1,4C213.7,352.1,214.8,350.8,214.8,348.2z"/>
		</g>
		<g>
			<g>
				<path class="st2" d="M306.1,187.1c-0.1-1.6-0.2-3.5-0.1-5.1h-0.1c-0.4,1.5-0.9,3.1-1.4,4.6l-1.8,5.3H301l-1.6-5.2
					c-0.5-1.5-0.9-3.2-1.2-4.7h0c-0.1,1.6-0.1,3.5-0.2,5.2l-0.3,4.9h-2.1l0.8-12.1h2.9l1.6,4.9c0.4,1.4,0.8,2.9,1.1,4.2h0.1
					c0.3-1.3,0.7-2.8,1.2-4.2l1.7-4.9h2.9l0.7,12.1h-2.2L306.1,187.1z"/>
				<path class="st2" d="M312.3,188.3c0.1,1.6,1.3,2.3,2.7,2.3c1,0,1.7-0.2,2.4-0.4l0.3,1.5c-0.8,0.3-1.8,0.6-3.1,0.6
					c-2.8,0-4.5-1.7-4.5-4.4c0-2.4,1.5-4.7,4.3-4.7c2.8,0,3.8,2.3,3.8,4.3c0,0.4,0,0.7-0.1,0.9H312.3z M316.1,186.7
					c0-0.8-0.3-2.1-1.8-2.1c-1.4,0-1.9,1.2-2,2.1H316.1z"/>
				<path class="st2" d="M328.1,179.2v10.3c0,0.9,0,1.9,0.1,2.5h-2l-0.1-1.4h0c-0.5,1-1.6,1.6-2.8,1.6c-2.1,0-3.8-1.8-3.8-4.5
					c0-2.9,1.8-4.7,3.9-4.7c1.2,0,2.1,0.5,2.5,1.1h0v-5H328.1z M325.9,186.9c0-0.2,0-0.4-0.1-0.6c-0.2-0.8-0.9-1.5-1.9-1.5
					c-1.4,0-2.2,1.3-2.2,2.9c0,1.6,0.8,2.8,2.2,2.8c0.9,0,1.7-0.6,1.9-1.6c0.1-0.2,0.1-0.4,0.1-0.6V186.9z"/>
				<path class="st2" d="M332,188.3c0.1,1.6,1.3,2.3,2.7,2.3c1,0,1.7-0.2,2.4-0.4l0.3,1.5c-0.8,0.3-1.8,0.6-3.1,0.6
					c-2.8,0-4.5-1.7-4.5-4.4c0-2.4,1.5-4.7,4.3-4.7c2.8,0,3.8,2.3,3.8,4.3c0,0.4,0,0.7-0.1,0.9H332z M335.9,186.7
					c0-0.8-0.3-2.1-1.8-2.1c-1.4,0-1.9,1.2-2,2.1H335.9z"/>
				<path class="st2" d="M347.7,190.7c0,1.8-0.4,3.2-1.3,4c-0.9,0.8-2.2,1.1-3.4,1.1c-1.1,0-2.3-0.3-3.1-0.7l0.5-1.7
					c0.6,0.3,1.5,0.7,2.6,0.7c1.4,0,2.5-0.8,2.5-2.6v-0.8h0c-0.5,0.8-1.4,1.3-2.6,1.3c-2.2,0-3.7-1.8-3.7-4.3c0-2.9,1.9-4.6,4-4.6
					c1.4,0,2.1,0.6,2.5,1.4h0l0.1-1.2h1.9c0,0.6-0.1,1.3-0.1,2.5V190.7z M345.5,186.8c0-0.2,0-0.4-0.1-0.6c-0.2-0.8-0.9-1.4-1.8-1.4
					c-1.2,0-2.2,1.1-2.2,2.9c0,1.5,0.8,2.7,2.1,2.7c0.8,0,1.5-0.5,1.8-1.3c0.1-0.2,0.1-0.5,0.1-0.8V186.8z"/>
				<path class="st2" d="M351.6,188.3c0.1,1.6,1.3,2.3,2.7,2.3c1,0,1.7-0.2,2.4-0.4l0.3,1.5c-0.8,0.3-1.8,0.6-3.1,0.6
					c-2.8,0-4.5-1.7-4.5-4.4c0-2.4,1.5-4.7,4.3-4.7c2.8,0,3.8,2.3,3.8,4.3c0,0.4,0,0.7-0.1,0.9H351.6z M355.5,186.7
					c0-0.8-0.3-2.1-1.8-2.1c-1.4,0-1.9,1.2-2,2.1H355.5z"/>
				<path class="st2" d="M359.6,192v-7.1h-1.2v-1.7h1.2v-0.4c0-2.4,1.6-3.8,4.2-3.8c0.9,0,1.9,0.2,2.4,0.6l-0.5,1.7
					c-0.4-0.2-1.1-0.5-1.9-0.5c-1.5,0-2,0.9-2,2.1v0.4h5.2v8.8h-2.2v-7.1h-3v7.1H359.6z"/>
				<path class="st2" d="M369.4,185.9c0-1,0-1.9-0.1-2.6h1.9l0.1,1.3h0.1c0.4-0.7,1.4-1.5,2.8-1.5c1.5,0,3.1,1,3.1,3.8v5.2h-2.2v-5
					c0-1.3-0.5-2.2-1.7-2.2c-0.9,0-1.5,0.6-1.7,1.3c-0.1,0.2-0.1,0.5-0.1,0.7v5.2h-2.2V185.9z"/>
				<path class="st2" d="M386.5,189.9c0,0.8,0,1.6,0.1,2.1h-2l-0.2-1h-0.1c-0.5,0.7-1.4,1.2-2.6,1.2c-1.8,0-2.8-1.3-2.8-2.6
					c0-2.2,2-3.3,5.2-3.3v-0.1c0-0.6-0.2-1.5-1.8-1.5c-0.9,0-1.8,0.3-2.4,0.6l-0.4-1.4c0.6-0.4,1.8-0.8,3.2-0.8
					c2.8,0,3.6,1.8,3.6,3.7V189.9z M384.3,187.7c-1.6,0-3.1,0.3-3.1,1.6c0,0.9,0.6,1.3,1.3,1.3c0.9,0,1.5-0.6,1.7-1.2
					c0.1-0.2,0.1-0.3,0.1-0.5V187.7z"/>
				<path class="st2" d="M388.8,185.9c0-1,0-1.9-0.1-2.6h1.9l0.1,1.3h0.1c0.4-0.7,1.4-1.5,2.8-1.5c1.5,0,3.1,1,3.1,3.8v5.2h-2.2v-5
					c0-1.3-0.5-2.2-1.7-2.2c-0.9,0-1.5,0.6-1.7,1.3c-0.1,0.2-0.1,0.5-0.1,0.7v5.2h-2.2V185.9z"/>
				<path class="st2" d="M405.6,191.7c-0.5,0.2-1.4,0.5-2.5,0.5c-2.7,0-4.5-1.8-4.5-4.5c0-2.6,1.8-4.7,4.9-4.7
					c0.8,0,1.6,0.2,2.1,0.4l-0.4,1.7c-0.4-0.2-0.9-0.3-1.7-0.3c-1.7,0-2.7,1.2-2.7,2.8c0,1.8,1.2,2.8,2.7,2.8c0.8,0,1.3-0.2,1.7-0.3
					L405.6,191.7z"/>
				<path class="st2" d="M409.6,180.8c0,0.6-0.5,1.2-1.3,1.2c-0.7,0-1.2-0.5-1.2-1.2c0-0.7,0.5-1.2,1.2-1.2
					C409.1,179.6,409.6,180.1,409.6,180.8z M407.2,192v-8.8h2.2v8.8H407.2z"/>
				<path class="st2" d="M413.4,188.3c0.1,1.6,1.3,2.3,2.7,2.3c1,0,1.7-0.2,2.4-0.4l0.3,1.5c-0.8,0.3-1.8,0.6-3.1,0.6
					c-2.8,0-4.5-1.7-4.5-4.4c0-2.4,1.5-4.7,4.3-4.7c2.8,0,3.8,2.3,3.8,4.3c0,0.4,0,0.7-0.1,0.9H413.4z M417.2,186.7
					c0-0.8-0.3-2.1-1.8-2.1c-1.4,0-1.9,1.2-2,2.1H417.2z"/>
				<path class="st2" d="M421.1,186.1c0-1.2,0-2.1-0.1-2.8h1.9l0.1,1.7h0.1c0.4-1.2,1.5-1.9,2.4-1.9c0.2,0,0.3,0,0.5,0.1v2.1
					c-0.2,0-0.4-0.1-0.7-0.1c-1,0-1.8,0.7-2,1.7c0,0.2-0.1,0.4-0.1,0.7v4.6h-2.2V186.1z"/>
				<path class="st2" d="M435.4,179.2v10.3c0,0.9,0,1.9,0.1,2.5h-2l-0.1-1.4h0c-0.5,1-1.6,1.6-2.8,1.6c-2.1,0-3.8-1.8-3.8-4.5
					c0-2.9,1.8-4.7,3.9-4.7c1.2,0,2.1,0.5,2.5,1.1h0v-5H435.4z M433.2,186.9c0-0.2,0-0.4-0.1-0.6c-0.2-0.8-0.9-1.5-1.9-1.5
					c-1.4,0-2.2,1.3-2.2,2.9c0,1.6,0.8,2.8,2.2,2.8c0.9,0,1.7-0.6,1.9-1.6c0.1-0.2,0.1-0.4,0.1-0.6V186.9z"/>
				<path class="st2" d="M303.8,200.8v10.3c0,0.9,0,1.9,0.1,2.5h-2l-0.1-1.4h0c-0.5,1-1.6,1.6-2.8,1.6c-2.1,0-3.8-1.8-3.8-4.5
					c0-2.9,1.8-4.7,3.9-4.7c1.2,0,2.1,0.5,2.5,1.1h0v-5H303.8z M301.6,208.5c0-0.2,0-0.4-0.1-0.6c-0.2-0.8-0.9-1.5-1.9-1.5
					c-1.4,0-2.2,1.3-2.2,2.9c0,1.6,0.8,2.8,2.2,2.8c0.9,0,1.7-0.6,1.9-1.6c0.1-0.2,0.1-0.4,0.1-0.6V208.5z"/>
				<path class="st2" d="M314.5,209.2c0,3.2-2.3,4.7-4.5,4.7c-2.5,0-4.4-1.7-4.4-4.5c0-2.9,1.9-4.6,4.5-4.6
					C312.8,204.6,314.5,206.5,314.5,209.2z M307.9,209.2c0,1.7,0.8,3,2.2,3c1.3,0,2.1-1.2,2.1-3c0-1.4-0.6-3-2.1-3
					C308.5,206.3,307.9,207.8,307.9,209.2z"/>
				<path class="st2" d="M324.7,209.2c0,3.2-2.3,4.7-4.5,4.7c-2.5,0-4.4-1.7-4.4-4.5c0-2.9,1.9-4.6,4.5-4.6
					C322.9,204.6,324.7,206.5,324.7,209.2z M318.1,209.2c0,1.7,0.8,3,2.2,3c1.3,0,2.1-1.2,2.1-3c0-1.4-0.6-3-2.1-3
					C318.7,206.3,318.1,207.8,318.1,209.2z"/>
				<path class="st2" d="M326.5,207.7c0-1.2,0-2.1-0.1-2.8h1.9l0.1,1.7h0.1c0.4-1.2,1.5-1.9,2.4-1.9c0.2,0,0.3,0,0.5,0.1v2.1
					c-0.2,0-0.4-0.1-0.7-0.1c-1,0-1.8,0.7-2,1.7c0,0.2-0.1,0.4-0.1,0.7v4.6h-2.2V207.7z"/>
				<path class="st2" d="M344.7,200.8v10.3c0,0.9,0,1.9,0.1,2.5h-2l-0.1-1.4h0c-0.5,1-1.6,1.6-2.8,1.6c-2.1,0-3.8-1.8-3.8-4.5
					c0-2.9,1.8-4.7,3.9-4.7c1.2,0,2.1,0.5,2.5,1.1h0v-5H344.7z M342.5,208.5c0-0.2,0-0.4-0.1-0.6c-0.2-0.8-0.9-1.5-1.9-1.5
					c-1.4,0-2.2,1.3-2.2,2.9c0,1.6,0.8,2.8,2.2,2.8c0.9,0,1.7-0.6,1.9-1.6c0.1-0.2,0.1-0.4,0.1-0.6V208.5z"/>
				<path class="st2" d="M348.6,209.9c0.1,1.6,1.3,2.3,2.7,2.3c1,0,1.7-0.2,2.4-0.4l0.3,1.5c-0.8,0.3-1.8,0.6-3.1,0.6
					c-2.8,0-4.5-1.7-4.5-4.4c0-2.4,1.5-4.7,4.3-4.7c2.8,0,3.8,2.3,3.8,4.3c0,0.4,0,0.7-0.1,0.9H348.6z M352.5,208.3
					c0-0.8-0.3-2.1-1.8-2.1c-1.4,0-1.9,1.2-2,2.1H352.5z"/>
				<path class="st2" d="M367,208.2h-4.6v3.6h5.1v1.8h-7.3v-12.1h7.1v1.8h-4.8v3.1h4.6V208.2z"/>
				<path class="st2" d="M377.1,211c0,1,0,1.9,0.1,2.6h-1.9l-0.1-1.3H375c-0.4,0.6-1.2,1.5-2.8,1.5c-1.6,0-3-1-3-3.8v-5.1h2.2v4.8
					c0,1.5,0.5,2.4,1.6,2.4c0.9,0,1.5-0.6,1.7-1.2c0.1-0.2,0.1-0.4,0.1-0.7v-5.3h2.2V211z"/>
				<path class="st2" d="M379.4,207.7c0-1.2,0-2.1-0.1-2.8h1.9l0.1,1.7h0.1c0.4-1.2,1.5-1.9,2.4-1.9c0.2,0,0.3,0,0.5,0.1v2.1
					c-0.2,0-0.4-0.1-0.7-0.1c-1,0-1.8,0.7-2,1.7c0,0.2-0.1,0.4-0.1,0.7v4.6h-2.2V207.7z"/>
				<path class="st2" d="M394,209.2c0,3.2-2.3,4.7-4.5,4.7c-2.5,0-4.4-1.7-4.4-4.5c0-2.9,1.9-4.6,4.5-4.6
					C392.3,204.6,394,206.5,394,209.2z M387.4,209.2c0,1.7,0.8,3,2.2,3c1.3,0,2.1-1.2,2.1-3c0-1.4-0.6-3-2.1-3
					C388.1,206.3,387.4,207.8,387.4,209.2z"/>
				<path class="st2" d="M395.8,207.8c0-1.2,0-2.1-0.1-2.9h1.9l0.1,1.4h0c0.6-1,1.7-1.5,3-1.5c2,0,3.7,1.7,3.7,4.5
					c0,3.2-2,4.7-4,4.7c-1.1,0-2-0.5-2.5-1.2h0v4.5h-2.2V207.8z M398.1,209.9c0,0.2,0,0.4,0.1,0.6c0.2,0.9,1,1.5,2,1.5
					c1.4,0,2.2-1.2,2.2-2.9c0-1.5-0.8-2.8-2.2-2.8c-0.9,0-1.8,0.7-2,1.6c0,0.2-0.1,0.4-0.1,0.6V209.9z"/>
				<path class="st2" d="M407.9,209.9c0.1,1.6,1.3,2.3,2.7,2.3c1,0,1.7-0.2,2.4-0.4l0.3,1.5c-0.8,0.3-1.8,0.6-3.1,0.6
					c-2.8,0-4.5-1.7-4.5-4.4c0-2.4,1.5-4.7,4.3-4.7c2.8,0,3.8,2.3,3.8,4.3c0,0.4,0,0.7-0.1,0.9H407.9z M411.8,208.3
					c0-0.8-0.3-2.1-1.8-2.1c-1.4,0-1.9,1.2-2,2.1H411.8z"/>
				<path class="st2" d="M415.6,211.6c0.5,0.3,1.4,0.6,2.2,0.6c1,0,1.4-0.4,1.4-1c0-0.6-0.4-0.9-1.4-1.3c-1.7-0.6-2.4-1.5-2.4-2.6
					c0-1.5,1.3-2.7,3.3-2.7c1,0,1.8,0.2,2.3,0.5l-0.5,1.5c-0.4-0.2-1.1-0.5-1.9-0.5c-0.8,0-1.2,0.4-1.2,0.9c0,0.6,0.4,0.8,1.5,1.2
					c1.6,0.6,2.3,1.4,2.3,2.7c0,1.6-1.2,2.8-3.6,2.8c-1.1,0-2-0.3-2.7-0.6L415.6,211.6z"/>
				<path class="st2" d="M424.7,209.9c0.1,1.6,1.3,2.3,2.7,2.3c1,0,1.7-0.2,2.4-0.4l0.3,1.5c-0.8,0.3-1.8,0.6-3.1,0.6
					c-2.8,0-4.5-1.7-4.5-4.4c0-2.4,1.5-4.7,4.3-4.7c2.8,0,3.8,2.3,3.8,4.3c0,0.4,0,0.7-0.1,0.9H424.7z M428.6,208.3
					c0-0.8-0.3-2.1-1.8-2.1c-1.4,0-1.9,1.2-2,2.1H428.6z"/>
				<path class="st2" d="M438.5,201.5v7.1c0,2.4,1,3.5,2.5,3.5c1.6,0,2.6-1.1,2.6-3.5v-7.1h2.2v6.9c0,3.7-1.9,5.4-4.8,5.4
					c-2.8,0-4.6-1.6-4.6-5.4v-7H438.5z"/>
				<path class="st2" d="M448.2,207.5c0-1,0-1.9-0.1-2.6h1.9l0.1,1.3h0.1c0.4-0.7,1.4-1.5,2.8-1.5c1.5,0,3.1,1,3.1,3.8v5.2h-2.2v-5
					c0-1.3-0.5-2.2-1.7-2.2c-0.9,0-1.5,0.6-1.7,1.3c-0.1,0.2-0.1,0.5-0.1,0.7v5.2h-2.2V207.5z"/>
				<path class="st2" d="M460.8,202.4c0,0.6-0.5,1.2-1.3,1.2c-0.7,0-1.2-0.5-1.2-1.2c0-0.7,0.5-1.2,1.2-1.2
					C460.3,201.2,460.8,201.7,460.8,202.4z M458.5,213.6v-8.8h2.2v8.8H458.5z"/>
				<path class="st2" d="M464.6,209.9c0.1,1.6,1.3,2.3,2.7,2.3c1,0,1.7-0.2,2.4-0.4l0.3,1.5c-0.8,0.3-1.8,0.6-3.1,0.6
					c-2.8,0-4.5-1.7-4.5-4.4c0-2.4,1.5-4.7,4.3-4.7c2.8,0,3.8,2.3,3.8,4.3c0,0.4,0,0.7-0.1,0.9H464.6z M468.5,208.3
					c0-0.8-0.3-2.1-1.8-2.1c-1.4,0-1.9,1.2-2,2.1H468.5z"/>
			</g>
			<g>
				<rect x="294.5" y="229.7" class="st1" width="153.8" height="102.6"/>
				<g>
					<polygon class="st3" points="371.2,241.1 369.9,244.9 366.1,244.9 369,247.4 368.2,250.8 371.2,248.7 374.1,250.8 373.4,247.4 
						376.3,244.9 372.5,244.9 					"/>
					<polygon class="st3" points="371.2,309 369.9,312.8 366.1,312.8 369,315.3 368.2,318.7 371.2,316.6 374.1,318.7 373.4,315.3 
						376.3,312.8 372.5,312.8 					"/>
					<polygon class="st3" points="337,275 335.7,278.9 331.9,278.9 334.8,281.5 334,284.9 337,282.7 340,284.9 339.2,281.5 
						342.1,278.9 338.3,278.9 					"/>
					<polygon class="st3" points="405.4,275 404.1,278.9 400.3,278.9 403.2,281.5 402.4,284.9 405.4,282.7 408.3,284.9 407.6,281.5 
						410.5,278.9 406.7,278.9 					"/>
					<polygon class="st3" points="354.1,246.2 352.8,250 349,250 351.9,252.6 351.1,255.9 354.1,253.9 357.1,255.9 356.3,252.6 
						359.2,250 355.4,250 					"/>
					<polygon class="st3" points="388.3,246.2 387,250 383.2,250 386.1,252.6 385.3,255.9 388.3,253.9 391.2,255.9 390.5,252.6 
						393.4,250 389.6,250 					"/>
					<polygon class="st3" points="354.1,303.9 352.8,307.7 349,307.7 351.9,310.2 351.1,313.6 354.1,311.5 357.1,313.6 356.3,310.2 
						359.2,307.7 355.4,307.7 					"/>
					<polygon class="st3" points="388.3,303.9 387,307.7 383.2,307.7 386.1,310.2 385.3,313.6 388.3,311.5 391.2,313.6 390.5,310.2 
						393.4,307.7 389.6,307.7 					"/>
					<polygon class="st3" points="342.1,258.1 340.8,261.9 337,261.9 340,264.4 339.2,267.8 342.1,265.8 345.1,267.8 344.3,264.4 
						347.2,261.9 343.4,261.9 					"/>
					<polygon class="st3" points="400.3,258.1 399,261.9 395.1,261.9 398.1,264.4 397.2,267.8 400.3,265.8 403.2,267.8 402.4,264.4 
						405.4,261.9 401.6,261.9 					"/>
					<polygon class="st3" points="342.1,292.1 340.8,295.8 337,295.8 340,298.3 339.2,301.7 342.1,299.6 345.1,301.7 344.3,298.3 
						347.2,295.8 343.4,295.8 					"/>
					<polygon class="st3" points="400.3,292.1 399,295.8 395.1,295.8 398.1,298.3 397.2,301.7 400.3,299.6 403.2,301.7 402.4,298.3 
						405.4,295.8 401.6,295.8 					"/>
				</g>
			</g>
		</g>
	</g>
</g>
</svg>
