<?xml version="1.0" encoding="utf-8"?>
<!-- Generator: Adobe Illustrator 21.1.0, SVG Export Plug-In . SVG Version: 6.00 Build 0)  -->
<svg version="1.1" xmlns="http://www.w3.org/2000/svg" xmlns:xlink="http://www.w3.org/1999/xlink" x="0px" y="0px"
	 viewBox="0 0 510.2 510.2" style="enable-background:new 0 0 510.2 510.2;" xml:space="preserve">
<style type="text/css">
	.st0{fill:#FFFFFF;stroke:#000000;stroke-miterlimit:10;}
	.st1{fill:#FFFFFF;}
</style>
<g id="Layer_2">
	<path class="st0" d="M492.8,148.9v220.1c0,22.2-18.1,40.3-40.3,40.3H56.9c-22.2,0-40.3-18.1-40.3-40.3V148.9
		c0-22.2,18.1-40.3,40.3-40.3h395.5C474.6,108.6,492.8,126.8,492.8,148.9z"/>
</g>
<g id="Layer_1">
	<g>
		<path d="M130.4,271.2c9.3-9.3,24.4-9.3,33.7,0c9.3,9.3,9.3,24.4,0,33.7c-9.3,9.3-24.4,9.3-33.7,0
			C121.1,295.6,121.1,280.5,130.4,271.2z"/>
		<path d="M109.6,250.4l-11.9-11.9c27.3-27.3,71.6-27.3,98.9,0l-11.9,11.9C164.1,229.7,130.4,229.7,109.6,250.4z"/>
		<path d="M86.2,227l-11.9-11.9c40.2-40.2,105.6-40.2,145.8,0L208.2,227C174.6,193.3,119.8,193.3,86.2,227z"/>
		<path d="M63.9,204.6l-11.9-11.9c52.5-52.5,137.8-52.5,190.3,0l-11.9,11.9C184.6,158.7,109.8,158.7,63.9,204.6z"/>
		<g>
			<path d="M87.3,350.1l-1.3,4l-1,2.9c-0.3,0.8-0.6,1.4-2.1,1.4h-4.4c-1.4,0-1.9-0.5-2.2-1.4l-6.6-24c-0.2-0.7-0.1-1.2,0.8-1.2h5.7
				c1.1,0,1.6,0.3,1.8,1.3l1.7,7.8l1.6,7.1h0.2l1.3-4.6l1.2-4.2l-2-6.3c-0.2-0.5,0-1.2,0.6-1.2h5.2c1.1,0,1.6,0.3,1.9,1.3l2.2,9
				l1.4,6h0.2l1.2-6.8l1.6-8.2c0.2-1,0.8-1.3,2-1.3h5.4c0.9,0,1,0.5,0.8,1.2l-6,24c-0.3,0.9-0.8,1.4-2.2,1.4h-4.4
				c-1.6,0-1.8-0.6-2.1-1.4l-0.9-2.9l-1.3-4H87.3z"/>
			<path d="M110.6,336.9c-3.4,0-3.8-1.9-3.8-3.6c0-1.9,0.8-3.5,3.8-3.5c3.2,0,3.8,1.5,3.8,3.5C114.5,335.1,113.9,336.9,110.6,336.9z
				 M114.3,357.5c0,0.3-0.1,1-0.9,1h-5.6c-0.8,0-1-0.4-1-1v-18c0-0.5,0.2-1,1-1h5.6c0.8,0,0.9,0.6,0.9,1V357.5z"/>
			<path d="M119.2,332.8c0-0.5,0.2-1,1-1h16.5c0.6,0,1,0.4,1,1v4.6c0,0.5-0.2,0.9-1,0.9h-9.6v3.2h8c0.6,0,1,0.4,1,1v4.6
				c0,0.5-0.2,0.9-1,0.9h-8v9.6c0,0.3-0.1,1-0.9,1h-6c-0.8,0-1-0.4-1-1L119.2,332.8z"/>
			<path d="M144.2,336.9c-3.4,0-3.8-1.9-3.8-3.6c0-1.9,0.8-3.5,3.8-3.5c3.2,0,3.8,1.5,3.8,3.5C148,335.1,147.4,336.9,144.2,336.9z
				 M147.8,357.5c0,0.3-0.1,1-0.9,1h-5.6c-0.8,0-1-0.4-1-1v-18c0-0.5,0.2-1,1-1h5.6c0.8,0,0.9,0.6,0.9,1V357.5z"/>
			<path d="M170.8,357.5c0,0.3-0.1,1-0.9,1h-5.7c-0.8,0-1-0.4-1-1V353l-11,0c-0.7,0-1.3-0.3-1.3-1.2v-3.8c0-0.4,0-0.8,0.4-1.4
				l10.9-14c0.5-0.6,1-0.8,1.8-0.8h5.7c0.8,0,0.9,0.6,0.9,1v13.9h2.4c0.8,0,0.9,0.3,0.9,0.9v4.4c0,0.7-0.1,1-0.9,1l-2.4,0V357.5z
				 M163.2,341.4l-3.9,5.3v0.2h4.1v-5.5H163.2z"/>
			<path d="M177.4,332.8c0-0.5,0.2-1,1-1h16.8c0.6,0,1,0.4,1,1v4.6c0,0.5-0.2,0.9-1,0.9h-9.9v3.2h8.6c0.6,0,1,0.4,1,1v4.6
				c0,0.5-0.2,0.9-1,0.9h-8.6v4.1h10.1c0.6,0,1,0.4,1,1v4.6c0,0.5-0.2,0.9-1,0.9h-17c-0.8,0-1-0.4-1-1V332.8z"/>
			<path d="M214.8,348.2l0-15.4c0-0.5,0.2-1,1-1h5.9c0.8,0,0.9,0.6,0.9,1v15.6c0,1.5-0.1,3.1-0.8,4.8c-1.7,4-6,5.6-10.2,5.6
				c-3.8,0-6.6-1.2-8.4-3.1c-1.7-1.9-2.5-4.4-2.5-7.3v-15.6c0-0.5,0.2-1,1-1h5.9c0.8,0,0.9,0.6,0.9,1v15.4c0,2.7,1.1,4,3.1,4
				C213.7,352.1,214.8,350.8,214.8,348.2z"/>
		</g>
		<g>
			<g>
				<path d="M297.6,192l-2.8-12.1h2.2l1.1,5.5c0.3,1.5,0.6,3,0.8,4.2h0c0.2-1.3,0.5-2.7,0.8-4.2l1.2-5.5h2.2l1.1,5.6
					c0.3,1.4,0.5,2.8,0.7,4.1h0c0.2-1.3,0.5-2.7,0.8-4.2l1.2-5.5h2.1l-3.1,12.1h-2.2l-1.2-5.7c-0.3-1.4-0.5-2.5-0.7-3.9h0
					c-0.2,1.3-0.4,2.5-0.8,3.9l-1.3,5.7H297.6z"/>
				<path d="M309.9,190c0.5,0.3,1.4,0.6,2.1,0.6c0.9,0,1.3-0.4,1.3-1c0-0.6-0.3-0.9-1.4-1.3c-1.6-0.6-2.3-1.5-2.3-2.6
					c0-1.5,1.2-2.7,3.1-2.7c0.9,0,1.7,0.2,2.2,0.5l-0.4,1.5c-0.3-0.2-1-0.5-1.8-0.5c-0.8,0-1.2,0.4-1.2,0.9c0,0.6,0.4,0.8,1.5,1.2
					c1.5,0.6,2.2,1.4,2.2,2.7c0,1.6-1.2,2.8-3.4,2.8c-1,0-1.9-0.3-2.5-0.6L309.9,190z"/>
				<path d="M317.1,186.2c0-1.2,0-2.1-0.1-2.9h1.8l0.1,1.4h0c0.6-1,1.6-1.5,2.9-1.5c1.9,0,3.5,1.7,3.5,4.5c0,3.2-1.9,4.7-3.8,4.7
					c-1,0-1.9-0.5-2.3-1.2h0v4.5h-2.1V186.2z M319.2,188.3c0,0.2,0,0.4,0.1,0.6c0.2,0.9,1,1.5,1.9,1.5c1.3,0,2.1-1.2,2.1-2.9
					c0-1.5-0.7-2.8-2.1-2.8c-0.9,0-1.7,0.7-1.9,1.6c0,0.2-0.1,0.4-0.1,0.6V188.3z"/>
				<path d="M335,187.6c0,3.2-2.2,4.7-4.3,4.7c-2.3,0-4.2-1.7-4.2-4.5c0-2.9,1.8-4.6,4.3-4.6C333.4,183,335,184.9,335,187.6z
					 M328.7,187.6c0,1.7,0.8,3,2.1,3c1.2,0,2-1.2,2-3c0-1.4-0.6-3-2-3C329.3,184.7,328.7,186.2,328.7,187.6z M333.3,179.4l-2.1,2.7
					h-1.5l1.5-2.7H333.3z"/>
				<path d="M336.8,192v-4.6l-1.1,1v-1.6l1.1-1v-6.5h2.1v4.9l1.2-1.1v1.7l-1.2,1v6.3H336.8z"/>
				<path d="M341.5,192v-7.1h-1.1v-1.7h1.1v-0.4c0-2.4,1.6-3.8,4-3.8c0.8,0,1.8,0.2,2.3,0.6l-0.5,1.7c-0.4-0.2-1-0.5-1.8-0.5
					c-1.5,0-1.9,0.9-1.9,2.1v0.4h5v8.8h-2.1v-7.1h-2.8v7.1H341.5z"/>
				<path d="M350.9,185.9c0-1,0-1.9-0.1-2.6h1.8l0.1,1.3h0.1c0.4-0.7,1.3-1.5,2.7-1.5c1.5,0,3,1,3,3.8v5.2h-2.1v-5
					c0-1.3-0.4-2.2-1.6-2.2c-0.8,0-1.4,0.6-1.6,1.3c-0.1,0.2-0.1,0.5-0.1,0.7v5.2h-2.1V185.9z"/>
				<path d="M367.1,189.9c0,0.8,0,1.6,0.1,2.1h-1.9l-0.2-1h-0.1c-0.5,0.7-1.4,1.2-2.5,1.2c-1.7,0-2.6-1.3-2.6-2.6
					c0-2.2,1.9-3.3,4.9-3.3v-0.1c0-0.6-0.2-1.5-1.7-1.5c-0.8,0-1.7,0.3-2.2,0.6l-0.4-1.4c0.6-0.4,1.7-0.8,3-0.8
					c2.7,0,3.4,1.8,3.4,3.7V189.9z M365.1,187.7c-1.5,0-2.9,0.3-2.9,1.6c0,0.9,0.5,1.3,1.2,1.3c0.9,0,1.5-0.6,1.7-1.2
					c0.1-0.2,0.1-0.3,0.1-0.5V187.7z"/>
				<path d="M369.3,185.9c0-1,0-1.9-0.1-2.6h1.8l0.1,1.3h0.1c0.4-0.7,1.3-1.5,2.7-1.5c1.5,0,3,1,3,3.8v5.2h-2.1v-5
					c0-1.3-0.4-2.2-1.6-2.2c-0.8,0-1.4,0.6-1.6,1.3c-0.1,0.2-0.1,0.5-0.1,0.7v5.2h-2.1V185.9z"/>
				<path d="M379,190c0.5,0.3,1.4,0.6,2.1,0.6c0.9,0,1.3-0.4,1.3-1c0-0.6-0.3-0.9-1.4-1.3c-1.6-0.6-2.3-1.5-2.3-2.6
					c0-1.5,1.2-2.7,3.1-2.7c0.9,0,1.7,0.2,2.2,0.5l-0.4,1.5c-0.3-0.2-1-0.5-1.8-0.5c-0.8,0-1.2,0.4-1.2,0.9c0,0.6,0.4,0.8,1.5,1.2
					c1.5,0.6,2.2,1.4,2.2,2.7c0,1.6-1.2,2.8-3.4,2.8c-1,0-1.9-0.3-2.5-0.6L379,190z"/>
				<path d="M394.2,187.6c0,3.2-2.2,4.7-4.3,4.7c-2.3,0-4.2-1.7-4.2-4.5c0-2.9,1.8-4.6,4.3-4.6C392.5,183,394.2,184.9,394.2,187.6z
					 M387.9,187.6c0,1.7,0.8,3,2.1,3c1.2,0,2-1.2,2-3c0-1.4-0.6-3-2-3C388.5,184.7,387.9,186.2,387.9,187.6z"/>
				<path d="M397,183.2l0.9,4c0.2,0.9,0.4,1.9,0.5,2.8h0c0.2-1,0.4-1.9,0.7-2.8l1.1-4h1.7l1,3.9c0.3,1,0.5,2,0.7,2.9h0
					c0.1-1,0.3-1.9,0.5-2.9l0.9-3.9h2.1l-2.6,8.8h-2l-1-3.6c-0.3-0.9-0.4-1.7-0.6-2.8h0c-0.2,1.1-0.4,1.9-0.6,2.8l-1.1,3.6h-2
					l-2.5-8.8H397z"/>
				<path d="M414.9,189.9c0,0.8,0,1.6,0.1,2.1h-1.9l-0.2-1H413c-0.5,0.7-1.4,1.2-2.5,1.2c-1.7,0-2.6-1.3-2.6-2.6
					c0-2.2,1.9-3.3,4.9-3.3v-0.1c0-0.6-0.2-1.5-1.7-1.5c-0.8,0-1.7,0.3-2.2,0.6l-0.4-1.4c0.6-0.4,1.7-0.8,3-0.8
					c2.7,0,3.4,1.8,3.4,3.7V189.9z M412.9,187.7c-1.5,0-2.9,0.3-2.9,1.6c0,0.9,0.5,1.3,1.2,1.3c0.9,0,1.5-0.6,1.7-1.2
					c0.1-0.2,0.1-0.3,0.1-0.5V187.7z"/>
				<path d="M417.1,185.9c0-1,0-1.9-0.1-2.6h1.8l0.1,1.3h0.1c0.4-0.7,1.3-1.5,2.7-1.5c1.5,0,3,1,3,3.8v5.2h-2.1v-5
					c0-1.3-0.4-2.2-1.6-2.2c-0.8,0-1.4,0.6-1.6,1.3c-0.1,0.2-0.1,0.5-0.1,0.7v5.2h-2.1V185.9z"/>
				<path d="M428.4,188.3c0.1,1.6,1.2,2.3,2.6,2.3c1,0,1.7-0.2,2.3-0.4l0.3,1.5c-0.7,0.3-1.7,0.6-2.9,0.6c-2.7,0-4.3-1.7-4.3-4.4
					c0-2.4,1.4-4.7,4.1-4.7c2.7,0,3.6,2.3,3.6,4.3c0,0.4,0,0.7-0.1,0.9H428.4z M432.1,186.7c0-0.8-0.3-2.1-1.7-2.1
					c-1.3,0-1.8,1.2-1.9,2.1H432.1z"/>
				<path d="M439.3,186.2c0-1.2,0-2.1-0.1-2.9h1.8l0.1,1.4h0c0.6-1,1.6-1.5,2.9-1.5c1.9,0,3.5,1.7,3.5,4.5c0,3.2-1.9,4.7-3.8,4.7
					c-1,0-1.9-0.5-2.3-1.2h0v4.5h-2.1V186.2z M441.4,188.3c0,0.2,0,0.4,0.1,0.6c0.2,0.9,1,1.5,1.9,1.5c1.3,0,2.1-1.2,2.1-2.9
					c0-1.5-0.7-2.8-2.1-2.8c-0.9,0-1.7,0.7-1.9,1.6c0,0.2-0.1,0.4-0.1,0.6V188.3z"/>
				<path d="M449.3,186.1c0-1.2,0-2.1-0.1-2.8h1.8l0.1,1.7h0.1c0.4-1.2,1.4-1.9,2.3-1.9c0.2,0,0.3,0,0.5,0.1v2.1
					c-0.2,0-0.4-0.1-0.6-0.1c-1,0-1.7,0.7-1.9,1.7c0,0.2-0.1,0.4-0.1,0.7v4.6h-2.1V186.1z"/>
				<path d="M454.7,190.7l3.1-4.2c0.4-0.5,0.8-1,1.2-1.5v0h-4v-1.8h6.6v1.4l-3,4.1c-0.4,0.5-0.8,1-1.2,1.5v0h4.4v1.8h-7V190.7z"/>
				<path d="M464.6,188.3c0.1,1.6,1.2,2.3,2.6,2.3c1,0,1.7-0.2,2.3-0.4l0.3,1.5c-0.7,0.3-1.7,0.6-2.9,0.6c-2.7,0-4.3-1.7-4.3-4.4
					c0-2.4,1.4-4.7,4.1-4.7c2.7,0,3.6,2.3,3.6,4.3c0,0.4,0,0.7-0.1,0.9H464.6z M468.2,186.7c0-0.8-0.3-2.1-1.7-2.1
					c-1.3,0-1.8,1.2-1.9,2.1H468.2z"/>
				<path d="M471.1,190.7l3.1-4.2c0.4-0.5,0.8-1,1.2-1.5v0h-4v-1.8h6.6v1.4l-3,4.1c-0.4,0.5-0.8,1-1.2,1.5v0h4.4v1.8h-7V190.7z"/>
				<path d="M298,201.5v7.1c0,2.4,1,3.5,2.5,3.5c1.6,0,2.6-1.1,2.6-3.5v-7.1h2.2v6.9c0,3.7-1.9,5.4-4.8,5.4c-2.8,0-4.6-1.6-4.6-5.4
					v-7H298z"/>
				<path d="M307.7,207.5c0-1,0-1.9-0.1-2.6h1.9l0.1,1.3h0.1c0.4-0.7,1.4-1.5,2.8-1.5c1.5,0,3.1,1,3.1,3.8v5.2h-2.2v-5
					c0-1.3-0.5-2.2-1.7-2.2c-0.9,0-1.5,0.6-1.7,1.3c-0.1,0.2-0.1,0.5-0.1,0.7v5.2h-2.2V207.5z"/>
				<path d="M320.4,202.4c0,0.6-0.5,1.2-1.3,1.2c-0.7,0-1.2-0.5-1.2-1.2c0-0.7,0.5-1.2,1.2-1.2C319.9,201.2,320.4,201.7,320.4,202.4
					z M318,213.6v-8.8h2.2v8.8H318z"/>
				<path d="M329.1,216.9c-0.5,0.4-1.1,0.5-1.7,0.5c-1.1,0-1.7-0.6-1.7-1.5s0.7-1.7,1.3-2.2v0c-0.1,0-0.2,0-0.4,0
					c-2.8,0-4.4-1.8-4.4-4.4c0-2.4,1.5-4.7,4.3-4.7c2.9,0,3.8,2.3,3.8,4.3c0,0.4,0,0.8-0.1,0.9h-5.9c0.1,1.6,1.3,2.3,2.7,2.3
					c1,0,1.7-0.2,2.4-0.4l0.3,1.5c-0.3,0.1-0.6,0.2-0.8,0.3c-0.7,0.3-1.6,1.2-1.6,1.8c0,0.5,0.3,0.7,0.7,0.7c0.3,0,0.6-0.1,0.8-0.2
					L329.1,216.9z M328,208.3c0-0.8-0.3-2.1-1.8-2.1c-1.4,0-1.9,1.2-2,2.1H328z"/>
				<path d="M342.5,208.2h-4.6v3.6h5.1v1.8h-7.3v-12.1h7.1v1.8h-4.8v3.1h4.6V208.2z"/>
				<path d="M352.6,211c0,1,0,1.9,0.1,2.6h-1.9l-0.1-1.3h-0.1c-0.4,0.6-1.2,1.5-2.8,1.5c-1.6,0-3-1-3-3.8v-5.1h2.2v4.8
					c0,1.5,0.5,2.4,1.6,2.4c0.9,0,1.5-0.6,1.7-1.2c0.1-0.2,0.1-0.4,0.1-0.7v-5.3h2.2V211z"/>
				<path d="M355,207.7c0-1.2,0-2.1-0.1-2.8h1.9l0.1,1.7h0.1c0.4-1.2,1.5-1.9,2.4-1.9c0.2,0,0.3,0,0.5,0.1v2.1
					c-0.2,0-0.4-0.1-0.7-0.1c-1,0-1.8,0.7-2,1.7c0,0.2-0.1,0.4-0.1,0.7v4.6H355V207.7z"/>
				<path d="M369.6,209.2c0,3.2-2.3,4.7-4.5,4.7c-2.5,0-4.4-1.7-4.4-4.5c0-2.9,1.9-4.6,4.5-4.6C367.8,204.6,369.6,206.5,369.6,209.2
					z M363,209.2c0,1.7,0.8,3,2.2,3c1.3,0,2.1-1.2,2.1-3c0-1.4-0.6-3-2.1-3C363.6,206.3,363,207.8,363,209.2z"/>
				<path d="M371.4,207.8c0-1.2,0-2.1-0.1-2.9h1.9l0.1,1.4h0c0.6-1,1.7-1.5,3-1.5c2,0,3.7,1.7,3.7,4.5c0,3.2-2,4.7-4,4.7
					c-1.1,0-2-0.5-2.5-1.2h0v4.5h-2.2V207.8z M373.6,209.9c0,0.2,0,0.4,0.1,0.6c0.2,0.9,1,1.5,2,1.5c1.4,0,2.2-1.2,2.2-2.9
					c0-1.5-0.8-2.8-2.2-2.8c-0.9,0-1.8,0.7-2,1.6c0,0.2-0.1,0.4-0.1,0.6V209.9z"/>
				<path d="M383.5,209.9c0.1,1.6,1.3,2.3,2.7,2.3c1,0,1.7-0.2,2.4-0.4l0.3,1.5c-0.8,0.3-1.8,0.6-3.1,0.6c-2.8,0-4.5-1.7-4.5-4.4
					c0-2.4,1.5-4.7,4.3-4.7c2.8,0,3.8,2.3,3.8,4.3c0,0.4,0,0.7-0.1,0.9H383.5z M387.3,208.3c0-0.8-0.3-2.1-1.8-2.1
					c-1.4,0-1.9,1.2-2,2.1H387.3z"/>
				<path d="M389.3,215.7c0.7-0.1,1.3-0.3,1.7-0.6c0.4-0.5,0.6-1.1,0.6-3v-7.2h2.2v7.8c0,1.8-0.4,3-1.2,3.7c-0.8,0.7-2,1-3.1,1
					L389.3,215.7z M393.8,202.4c0,0.6-0.5,1.2-1.3,1.2c-0.8,0-1.2-0.5-1.2-1.2c0-0.7,0.5-1.2,1.3-1.2
					C393.4,201.2,393.8,201.7,393.8,202.4z"/>
				<path d="M396,211.6c0.5,0.3,1.4,0.6,2.2,0.6c1,0,1.4-0.4,1.4-1c0-0.6-0.4-0.9-1.4-1.3c-1.7-0.6-2.4-1.5-2.4-2.6
					c0-1.5,1.3-2.7,3.3-2.7c1,0,1.8,0.2,2.3,0.5l-0.5,1.5c-0.4-0.2-1.1-0.5-1.9-0.5c-0.8,0-1.2,0.4-1.2,0.9c0,0.6,0.4,0.8,1.5,1.2
					c1.6,0.6,2.3,1.4,2.3,2.7c0,1.6-1.2,2.8-3.6,2.8c-1.1,0-2-0.3-2.7-0.6L396,211.6z"/>
				<path d="M405.8,208.7L405.8,208.7c0.3-0.3,0.5-0.7,0.7-1l2.1-2.8h2.7l-3.3,3.6l3.7,5.2H409l-2.5-3.9l-0.7,0.9v3h-2.2v-12.8h2.2
					V208.7z"/>
				<path d="M419.7,211.5c0,0.8,0,1.6,0.1,2.1h-0.7c-0.2,0.3-0.5,0.9-0.5,1.5c0,0.6,0.4,0.9,0.9,0.9c0.3,0,0.6-0.1,0.8-0.2l0.3,1.1
					c-0.5,0.4-1.2,0.5-1.7,0.5c-1,0-1.7-0.6-1.7-1.7c0-0.9,0.5-1.7,0.7-2.2l-0.1-0.9h-0.1c-0.5,0.7-1.4,1.2-2.6,1.2
					c-1.8,0-2.8-1.3-2.8-2.6c0-2.2,2-3.3,5.2-3.3v-0.1c0-0.6-0.2-1.5-1.8-1.5c-0.9,0-1.8,0.3-2.4,0.6l-0.4-1.4
					c0.6-0.4,1.8-0.8,3.2-0.8c2.8,0,3.6,1.8,3.6,3.7V211.5z M417.6,209.3c-1.6,0-3.1,0.3-3.1,1.6c0,0.9,0.6,1.3,1.3,1.3
					c0.9,0,1.5-0.6,1.7-1.2c0.1-0.2,0.1-0.3,0.1-0.5V209.3z"/>
			</g>
			<g>
				<rect x="294.5" y="229.7" width="153.8" height="102.6"/>
				<g>
					<polygon class="st1" points="371.2,241.1 369.9,244.9 366.1,244.9 369,247.4 368.2,250.8 371.2,248.7 374.1,250.8 373.4,247.4 
						376.3,244.9 372.5,244.9 					"/>
					<polygon class="st1" points="371.2,309 369.9,312.8 366.1,312.8 369,315.3 368.2,318.7 371.2,316.6 374.1,318.7 373.4,315.3 
						376.3,312.8 372.5,312.8 					"/>
					<polygon class="st1" points="337,275 335.7,278.9 331.9,278.9 334.8,281.5 334,284.9 337,282.7 340,284.9 339.2,281.5 
						342.1,278.9 338.3,278.9 					"/>
					<polygon class="st1" points="405.4,275 404.1,278.9 400.3,278.9 403.2,281.5 402.4,284.9 405.4,282.7 408.3,284.9 407.6,281.5 
						410.5,278.9 406.7,278.9 					"/>
					<polygon class="st1" points="354.1,246.2 352.8,250 349,250 351.9,252.6 351.1,255.9 354.1,253.9 357.1,255.9 356.3,252.6 
						359.2,250 355.4,250 					"/>
					<polygon class="st1" points="388.3,246.2 387,250 383.2,250 386.1,252.6 385.3,255.9 388.3,253.9 391.2,255.9 390.5,252.6 
						393.4,250 389.6,250 					"/>
					<polygon class="st1" points="354.1,303.9 352.8,307.7 349,307.7 351.9,310.2 351.1,313.6 354.1,311.5 357.1,313.6 356.3,310.2 
						359.2,307.7 355.4,307.7 					"/>
					<polygon class="st1" points="388.3,303.9 387,307.7 383.2,307.7 386.1,310.2 385.3,313.6 388.3,311.5 391.2,313.6 390.5,310.2 
						393.4,307.7 389.6,307.7 					"/>
					<polygon class="st1" points="342.1,258.1 340.8,261.9 337,261.9 340,264.4 339.2,267.8 342.1,265.8 345.1,267.8 344.3,264.4 
						347.2,261.9 343.4,261.9 					"/>
					<polygon class="st1" points="400.3,258.1 399,261.9 395.1,261.9 398.1,264.4 397.2,267.8 400.3,265.8 403.2,267.8 402.4,264.4 
						405.4,261.9 401.6,261.9 					"/>
					<polygon class="st1" points="342.1,292.1 340.8,295.8 337,295.8 340,298.3 339.2,301.7 342.1,299.6 345.1,301.7 344.3,298.3 
						347.2,295.8 343.4,295.8 					"/>
					<polygon class="st1" points="400.3,292.1 399,295.8 395.1,295.8 398.1,298.3 397.2,301.7 400.3,299.6 403.2,301.7 402.4,298.3 
						405.4,295.8 401.6,295.8 					"/>
				</g>
			</g>
		</g>
	</g>
</g>
</svg>
